EESchema Schematic File Version 4
LIBS:pcb-cache
EELAYER 26 0
EELAYER END
$Descr A3 16535 11693
encoding utf-8
Sheet 1 1
Title "AXIOM micro main board"
Date "2018-04-16"
Rev "2.0"
Comp "Apertus"
Comment1 ""
Comment2 ""
Comment3 ""
Comment4 ""
$EndDescr
$Comp
L device1:C C34
U 1 1 5A472681
P 11950 4550
F 0 "C34" H 11975 4650 50  0000 L CNN
F 1 "1µF" H 11975 4450 50  0000 L CNN
F 2 "Capacitors_SMD:C_0402" H 11988 4400 50  0001 C CNN
F 3 "" H 11950 4550 50  0001 C CNN
	1    11950 4550
	1    0    0    -1  
$EndComp
$Comp
L device1:C C39
U 1 1 5A472708
P 12250 4550
F 0 "C39" H 12275 4650 50  0000 L CNN
F 1 ".1µF" H 12275 4450 50  0000 L CNN
F 2 "Capacitors_SMD:C_0402" H 12288 4400 50  0001 C CNN
F 3 "" H 12250 4550 50  0001 C CNN
	1    12250 4550
	1    0    0    -1  
$EndComp
$Comp
L device1:C C25
U 1 1 5A47430B
P 11300 4550
F 0 "C25" H 11325 4650 50  0000 L CNN
F 1 "1µF" H 11325 4450 50  0000 L CNN
F 2 "Capacitors_SMD:C_0402" H 11338 4400 50  0001 C CNN
F 3 "" H 11300 4550 50  0001 C CNN
	1    11300 4550
	1    0    0    -1  
$EndComp
$Comp
L device1:C C29
U 1 1 5A474317
P 11600 4550
F 0 "C29" H 11625 4650 50  0000 L CNN
F 1 ".1µF" H 11625 4450 50  0000 L CNN
F 2 "Capacitors_SMD:C_0402" H 11638 4400 50  0001 C CNN
F 3 "" H 11600 4550 50  0001 C CNN
	1    11600 4550
	1    0    0    -1  
$EndComp
$Comp
L device1:C C33
U 1 1 5A474385
P 11300 3550
F 0 "C33" H 11325 3650 50  0000 L CNN
F 1 "1µF" H 11325 3450 50  0000 L CNN
F 2 "Capacitors_SMD:C_0402" H 11338 3400 50  0001 C CNN
F 3 "" H 11300 3550 50  0001 C CNN
	1    11300 3550
	1    0    0    -1  
$EndComp
$Comp
L device1:C C22
U 1 1 5A4745B2
P 11300 1600
F 0 "C22" H 11150 1700 50  0000 L CNN
F 1 "1µF" H 11325 1500 50  0000 L CNN
F 2 "Capacitors_SMD:C_0402" H 11338 1450 50  0001 C CNN
F 3 "" H 11300 1600 50  0001 C CNN
	1    11300 1600
	1    0    0    -1  
$EndComp
Text Label 11600 1050 3    60   ~ 0
VDD_IO
$Comp
L device1:C C23
U 1 1 5A474623
P 11300 2700
F 0 "C23" H 11325 2800 50  0000 L CNN
F 1 "1µF" H 11325 2600 50  0000 L CNN
F 2 "Capacitors_SMD:C_0402" H 11338 2550 50  0001 C CNN
F 3 "" H 11300 2700 50  0001 C CNN
	1    11300 2700
	1    0    0    -1  
$EndComp
$Comp
L device1:C C27
U 1 1 5A47462F
P 11600 2700
F 0 "C27" H 11625 2800 50  0000 L CNN
F 1 "100n" H 11625 2600 50  0000 L CNN
F 2 "Capacitors_SMD:C_0402" H 11638 2550 50  0001 C CNN
F 3 "" H 11600 2700 50  0001 C CNN
	1    11600 2700
	1    0    0    -1  
$EndComp
$Comp
L device1:C C32
U 1 1 5A474685
P 11950 2700
F 0 "C32" H 11975 2800 50  0000 L CNN
F 1 "1µF" H 11975 2600 50  0000 L CNN
F 2 "Capacitors_SMD:C_0402" H 11988 2550 50  0001 C CNN
F 3 "" H 11950 2700 50  0001 C CNN
	1    11950 2700
	1    0    0    -1  
$EndComp
$Comp
L device1:C C37
U 1 1 5A474691
P 12250 2700
F 0 "C37" H 12275 2800 50  0000 L CNN
F 1 "100n" H 12275 2600 50  0000 L CNN
F 2 "Capacitors_SMD:C_0402" H 12288 2550 50  0001 C CNN
F 3 "" H 12250 2700 50  0001 C CNN
	1    12250 2700
	1    0    0    -1  
$EndComp
$Comp
L device1:C C24
U 1 1 5A475A62
P 12550 2700
F 0 "C24" H 12575 2800 50  0000 L CNN
F 1 "1µF" H 12575 2600 50  0000 L CNN
F 2 "Capacitors_SMD:C_0402" H 12588 2550 50  0001 C CNN
F 3 "" H 12550 2700 50  0001 C CNN
	1    12550 2700
	1    0    0    -1  
$EndComp
$Comp
L device1:C C28
U 1 1 5A475A6E
P 12850 2700
F 0 "C28" H 12875 2800 50  0000 L CNN
F 1 "100n" H 12875 2600 50  0000 L CNN
F 2 "Capacitors_SMD:C_0402" H 12888 2550 50  0001 C CNN
F 3 "" H 12850 2700 50  0001 C CNN
	1    12850 2700
	1    0    0    -1  
$EndComp
$Comp
L power1:GNDD #PWR01
U 1 1 5A49EF80
P 750 6250
F 0 "#PWR01" H 750 6000 50  0001 C CNN
F 1 "GNDD" H 750 6125 50  0000 C CNN
F 2 "" H 750 6250 50  0001 C CNN
F 3 "" H 750 6250 50  0001 C CNN
	1    750  6250
	1    0    0    -1  
$EndComp
$Comp
L device1:R R108
U 1 1 5A4A8131
P 13400 2100
F 0 "R108" V 13480 2100 50  0000 C CNN
F 1 "15k" V 13400 2100 50  0000 C CNN
F 2 "Resistors_SMD:R_0603_HandSoldering" V 13330 2100 50  0001 C CNN
F 3 "" H 13400 2100 50  0001 C CNN
	1    13400 2100
	1    0    0    -1  
$EndComp
$Comp
L device1:R R109
U 1 1 5A4A8132
P 13550 2100
F 0 "R109" V 13630 2100 50  0000 C CNN
F 1 "15k " V 13550 2100 50  0000 C CNN
F 2 "Resistors_SMD:R_0603_HandSoldering" V 13480 2100 50  0001 C CNN
F 3 "" H 13550 2100 50  0001 C CNN
	1    13550 2100
	1    0    0    -1  
$EndComp
$Comp
L power1:GNDD #PWR02
U 1 1 5A4A8133
P 13550 1250
F 0 "#PWR02" H 13550 1000 50  0001 C CNN
F 1 "GNDD" H 13550 1125 50  0000 C CNN
F 2 "" H 13550 1250 50  0001 C CNN
F 3 "" H 13550 1250 50  0001 C CNN
	1    13550 1250
	1    0    0    -1  
$EndComp
$Comp
L power1:GNDA #PWR03
U 1 1 5A4A8135
P 12950 4200
F 0 "#PWR03" H 12950 3950 50  0001 C CNN
F 1 "GNDA" H 12950 4050 50  0000 C CNN
F 2 "" H 12950 4200 50  0001 C CNN
F 3 "" H 12950 4200 50  0001 C CNN
	1    12950 4200
	1    0    0    -1  
$EndComp
$Comp
L power1:GNDA #PWR04
U 1 1 5A4A8137
P 11950 4700
F 0 "#PWR04" H 11950 4450 50  0001 C CNN
F 1 "GNDA" H 11950 4550 50  0000 C CNN
F 2 "" H 11950 4700 50  0001 C CNN
F 3 "" H 11950 4700 50  0001 C CNN
	1    11950 4700
	1    0    0    -1  
$EndComp
Text Notes 6050 7650 0    60   ~ 0
POWER
Text Label 12250 4150 3    60   ~ 0
VAA
Text Label 13100 4300 0    60   ~ 0
VAA
Text Label 13100 4100 0    60   ~ 0
VDD_PLL
Text Label 13100 4400 0    60   ~ 0
VAA_PIX
Text Label 13100 4600 0    60   ~ 0
VDD_HISPI
Text Label 13100 4700 0    60   ~ 0
VDD_HISPI_TX
Text Label 13100 3350 0    60   ~ 0
VDD
$Comp
L power1:GNDA #PWR05
U 1 1 5A4A813A
P 11300 4700
F 0 "#PWR05" H 11300 4450 50  0001 C CNN
F 1 "GNDA" H 11300 4550 50  0000 C CNN
F 2 "" H 11300 4700 50  0001 C CNN
F 3 "" H 11300 4700 50  0001 C CNN
	1    11300 4700
	1    0    0    -1  
$EndComp
Text Label 11600 3950 3    60   ~ 0
VAA_PIX
Text Label 11600 3150 3    60   ~ 0
VDD
$Comp
L power1:GNDD #PWR06
U 1 1 5A4A8140
P 11300 1750
F 0 "#PWR06" H 11300 1500 50  0001 C CNN
F 1 "GNDD" H 11300 1600 50  0000 C CNN
F 2 "" H 11300 1750 50  0001 C CNN
F 3 "" H 11300 1750 50  0001 C CNN
	1    11300 1750
	1    0    0    -1  
$EndComp
$Comp
L power1:GNDD #PWR07
U 1 1 5A4A8143
P 11300 2850
F 0 "#PWR07" H 11300 2600 50  0001 C CNN
F 1 "GNDD" H 11300 2700 50  0000 C CNN
F 2 "" H 11300 2850 50  0001 C CNN
F 3 "" H 11300 2850 50  0001 C CNN
	1    11300 2850
	1    0    0    -1  
$EndComp
Text Label 11600 2000 3    60   ~ 0
VDD_HISPI
$Comp
L power1:GNDD #PWR08
U 1 1 5A4A8146
P 11950 2850
F 0 "#PWR08" H 11950 2600 50  0001 C CNN
F 1 "GNDD" H 11950 2700 50  0000 C CNN
F 2 "" H 11950 2850 50  0001 C CNN
F 3 "" H 11950 2850 50  0001 C CNN
	1    11950 2850
	1    0    0    -1  
$EndComp
Text Label 12250 1850 3    60   ~ 0
VDD_HISPI_TX
$Comp
L power1:GNDD #PWR09
U 1 1 5A4A8149
P 12550 2850
F 0 "#PWR09" H 12550 2600 50  0001 C CNN
F 1 "GNDD" H 12550 2700 50  0000 C CNN
F 2 "" H 12550 2850 50  0001 C CNN
F 3 "" H 12550 2850 50  0001 C CNN
	1    12550 2850
	1    0    0    -1  
$EndComp
Text Label 12850 2100 3    60   ~ 0
VDD_PLL
Text Label 13100 3700 0    60   ~ 0
VDD_IO
Text Notes 11150 650  0    60   ~ 0
SENSOR
$Comp
L pcie-36-axiom:PCIe-36-Axiom J9
U 1 1 5A47BF85
P 13850 8750
F 0 "J9" H 13800 8775 60  0000 C CNN
F 1 "Extension South" H 13800 8925 60  0000 C CNN
F 2 "pcie:PCIE-36-NOPEG" H 13500 9150 60  0001 C CNN
F 3 "" H 13500 9150 60  0001 C CNN
	1    13850 8750
	1    0    0    -1  
$EndComp
$Comp
L power1:GNDD #PWR010
U 1 1 5A47BF90
P 15300 9600
F 0 "#PWR010" H 15300 9350 50  0001 C CNN
F 1 "GNDD" H 15300 9475 50  0000 C CNN
F 2 "" H 15300 9600 50  0001 C CNN
F 3 "" H 15300 9600 50  0001 C CNN
	1    15300 9600
	1    0    0    -1  
$EndComp
Text GLabel 13000 8600 0    60   Input ~ 0
IO7_S
Text GLabel 13000 8700 0    60   Input ~ 0
IO6_S
Text GLabel 13000 8800 0    60   Input ~ 0
IO5_S
Text GLabel 13000 8900 0    60   Input ~ 0
IO4_S
Text GLabel 13000 9000 0    60   Input ~ 0
IO3_S
Text GLabel 13000 9100 0    60   Input ~ 0
IO2_S
Text GLabel 13000 9200 0    60   Input ~ 0
IO1_S
Text GLabel 13000 9300 0    60   Input ~ 0
IO0_S
Text GLabel 12200 9500 0    60   Input ~ 0
SCL_S
Text GLabel 12200 9600 0    60   Input ~ 0
SDA_S
Text GLabel 13000 7950 0    60   Input ~ 0
LVDSs5_N
Text GLabel 13000 8050 0    60   Input ~ 0
LVDSs5_P
Text GLabel 14700 7950 2    60   Input ~ 0
LVDSs4_N
Text GLabel 14700 8050 2    60   Input ~ 0
LVDSs4_P
Text GLabel 14700 8250 2    60   Input ~ 0
LVDSs3_N
Text GLabel 14700 8350 2    60   Input ~ 0
LVDSs3_P
Text GLabel 14700 8800 2    60   Input ~ 0
LVDSs2_N
Text GLabel 14700 8900 2    60   Input ~ 0
LVDSs2_P
Text GLabel 14700 9100 2    60   Input ~ 0
LVDSs1_N
Text GLabel 14700 9200 2    60   Input ~ 0
LVDSs1_P
Text GLabel 14700 9400 2    60   Input ~ 0
LVDSs0_N
Text GLabel 14700 9500 2    60   Input ~ 0
LVDSs0_P
$Comp
L pcie-36-axiom:PCIe-36-Axiom J8
U 1 1 5A484786
P 13850 6300
F 0 "J8" H 13800 6325 60  0000 C CNN
F 1 "Extension North" H 13800 6475 60  0000 C CNN
F 2 "pcie:PCIE-36-NOPEG" H 13500 6700 60  0001 C CNN
F 3 "" H 13500 6700 60  0001 C CNN
	1    13850 6300
	1    0    0    -1  
$EndComp
Text GLabel 13000 6150 0    60   Input ~ 0
IO7_N
Text GLabel 13000 6250 0    60   Input ~ 0
IO6_N
Text GLabel 13000 6350 0    60   Input ~ 0
IO5_N
Text GLabel 13000 6450 0    60   Input ~ 0
IO4_N
Text GLabel 13000 6550 0    60   Input ~ 0
IO3_N
Text GLabel 13000 6650 0    60   Input ~ 0
IO2_N
Text GLabel 13000 6750 0    60   Input ~ 0
IO1_N
Text GLabel 13000 6850 0    60   Input ~ 0
IO0_N
Text GLabel 12200 7050 0    60   Input ~ 0
SCL_N
Text GLabel 12200 7150 0    60   Input ~ 0
SDA_N
Text GLabel 13000 5500 0    60   Input ~ 0
LVDSn5_N
Text GLabel 13000 5600 0    60   Input ~ 0
LVDSn5_P
Text GLabel 14700 5500 2    60   Input ~ 0
LVDSn4_N
Text GLabel 14700 5600 2    60   Input ~ 0
LVDSn4_P
Text GLabel 1350 2350 0    60   Input ~ 0
LVDSn3_N
Text GLabel 1350 2250 0    60   Input ~ 0
LVDSn3_P
Text GLabel 1350 2050 0    60   Input ~ 0
LVDSn2_N
Text GLabel 1350 1950 0    60   Input ~ 0
LVDSn2_P
Text GLabel 14700 6650 2    60   Input ~ 0
LVDSn1_N
Text GLabel 14700 6750 2    60   Input ~ 0
LVDSn1_P
Text GLabel 14700 6950 2    60   Input ~ 0
LVDSn0_N
Text GLabel 14700 7050 2    60   Input ~ 0
LVDSn0_P
Text GLabel 1350 2750 0    60   Input ~ 0
LVDSn5_N
Text GLabel 1350 2850 0    60   Input ~ 0
LVDSn5_P
Text GLabel 1350 2550 0    60   Input ~ 0
LVDSn4_N
Text GLabel 1350 2450 0    60   Input ~ 0
LVDSn4_P
Text GLabel 1350 1850 0    60   Input ~ 0
LVDSn1_N
Text GLabel 1350 1750 0    60   Input ~ 0
LVDSn1_P
Text GLabel 1350 1350 0    60   Input ~ 0
LVDSn0_N
Text GLabel 1350 1450 0    60   Input ~ 0
LVDSn0_P
Text GLabel 1350 1150 0    60   Input ~ 0
LVDSs5_N
Text GLabel 1350 1250 0    60   Input ~ 0
LVDSs5_P
Text GLabel 1350 950  0    60   Input ~ 0
LVDSs4_N
Text GLabel 1350 850  0    60   Input ~ 0
LVDSs4_P
Text GLabel 3300 1450 2    60   Input ~ 0
LVDSs3_N
Text GLabel 3300 1350 2    60   Input ~ 0
LVDSs3_P
Text GLabel 3300 1250 2    60   Input ~ 0
LVDSs2_N
Text GLabel 3300 1150 2    60   Input ~ 0
LVDSs2_P
Text GLabel 3300 950  2    60   Input ~ 0
LVDSs1_N
Text GLabel 3300 850  2    60   Input ~ 0
LVDSs1_P
Text GLabel 3300 1850 2    60   Input ~ 0
LVDSs0_N
Text GLabel 3300 1750 2    60   Input ~ 0
LVDSs0_P
Text GLabel 14700 5800 2    60   Input ~ 0
LVDSn3_N
Text GLabel 14700 5900 2    60   Input ~ 0
LVDSn3_P
Text GLabel 14700 6350 2    60   Input ~ 0
LVDSn2_N
Text GLabel 14700 6450 2    60   Input ~ 0
LVDSn2_P
Text GLabel 3300 4550 2    60   Input ~ 0
IO7_S
Text GLabel 3300 4450 2    60   Input ~ 0
IO6_S
Text GLabel 1350 3750 0    60   Input ~ 0
IO5_S
Text GLabel 1350 3850 0    60   Input ~ 0
IO4_S
Text GLabel 3300 3750 2    60   Input ~ 0
IO3_S
Text GLabel 3300 3850 2    60   Input ~ 0
IO2_S
Text GLabel 3300 4350 2    60   Input ~ 0
IO1_S
Text GLabel 3300 4250 2    60   Input ~ 0
IO0_S
Text GLabel 1350 3350 0    60   Input ~ 0
SCL_N
Text GLabel 1350 3250 0    60   Input ~ 0
SDA_N
Text GLabel 1350 4350 0    60   Input ~ 0
IO7_N
Text GLabel 1350 5150 0    60   Input ~ 0
IO6_N
Text GLabel 1350 5050 0    60   Input ~ 0
IO5_N
Text GLabel 1350 4950 0    60   Input ~ 0
IO4_N
Text GLabel 1350 4850 0    60   Input ~ 0
IO3_N
Text GLabel 1350 4650 0    60   Input ~ 0
IO2_N
Text GLabel 1350 4550 0    60   Input ~ 0
IO1_N
Text GLabel 1350 4450 0    60   Input ~ 0
IO0_N
$Comp
L pmod:PMOD-Host-x2-GPIO J4
U 1 1 5A4D18A6
P 5350 2450
F 0 "J4" H 5350 2400 50  0000 C CNN
F 1 "PMODx2 North" V 5650 2150 50  0001 C CNN
F 2 "parts:pmod_pin_array_6x2" H 5400 2750 60  0001 C CNN
F 3 "" H 5400 2750 60  0000 C CNN
	1    5350 2450
	1    0    0    -1  
$EndComp
Text GLabel 5200 1900 0    60   BiDi ~ 0
PMOD0_N
Text GLabel 5200 2000 0    60   BiDi ~ 0
PMOD1_N
Text GLabel 5200 2100 0    60   BiDi ~ 0
PMOD2_N
Text GLabel 5200 2200 0    60   BiDi ~ 0
PMOD3_N
Text GLabel 5200 2600 0    60   BiDi ~ 0
PMOD4_N
Text GLabel 5200 2700 0    60   BiDi ~ 0
PMOD5_N
Text GLabel 5200 2800 0    60   BiDi ~ 0
PMOD6_N
Text Notes 11350 5200 0    60   ~ 0
PLUGINs
Text Notes 4700 1750 0    60   ~ 0
PMOD Connectors
Text GLabel 1350 6150 0    60   BiDi ~ 0
PMOD0_N
Text GLabel 1350 5950 0    60   BiDi ~ 0
PMOD1_N
Text GLabel 1350 5650 0    60   BiDi ~ 0
PMOD2_N
Text GLabel 1350 5450 0    60   BiDi ~ 0
PMOD3_N
Text GLabel 1350 6050 0    60   BiDi ~ 0
PMOD4_N
Text GLabel 1350 5850 0    60   BiDi ~ 0
PMOD5_N
Text GLabel 1350 5550 0    60   BiDi ~ 0
PMOD6_N
Text GLabel 1350 5350 0    60   BiDi ~ 0
PMOD7_N
Text GLabel 3300 5550 2    60   BiDi ~ 0
PMOD0_S
Text GLabel 3300 5450 2    60   BiDi ~ 0
PMOD1_S
Text GLabel 3300 5150 2    60   BiDi ~ 0
PMOD2_S
Text GLabel 3300 4950 2    60   BiDi ~ 0
PMOD3_S
Text GLabel 3300 5650 2    60   BiDi ~ 0
PMOD4_S
Text GLabel 3300 5350 2    60   BiDi ~ 0
PMOD5_S
Text GLabel 3300 5050 2    60   BiDi ~ 0
PMOD6_S
Text GLabel 3300 4850 2    60   BiDi ~ 0
PMOD7_S
Text GLabel 3300 5850 2    60   BiDi ~ 0
PMOD0_E
Text GLabel 3300 5950 2    60   BiDi ~ 0
PMOD1_E
Text GLabel 3300 6050 2    60   BiDi ~ 0
PMOD2_E
Text GLabel 3300 6150 2    60   BiDi ~ 0
PMOD3_E
Text GLabel 1350 3050 0    60   Input ~ 0
SCL_S
Text GLabel 1350 2950 0    60   Input ~ 0
SDA_S
$Comp
L power1:GNDA #PWR011
U 1 1 5A5438DB
P 7100 9150
F 0 "#PWR011" H 7100 8900 50  0001 C CNN
F 1 "GNDA" H 7100 9000 50  0000 C CNN
F 2 "" H 7100 9150 50  0001 C CNN
F 3 "" H 7100 9150 50  0001 C CNN
	1    7100 9150
	1    0    0    -1  
$EndComp
$Comp
L power1:GNDD #PWR012
U 1 1 5A543949
P 7400 9150
F 0 "#PWR012" H 7400 8900 50  0001 C CNN
F 1 "GNDD" H 7400 9025 50  0000 C CNN
F 2 "" H 7400 9150 50  0001 C CNN
F 3 "" H 7400 9150 50  0001 C CNN
	1    7400 9150
	1    0    0    -1  
$EndComp
NoConn ~ 3300 750 
NoConn ~ 1350 750 
NoConn ~ 1350 6350
NoConn ~ 13700 4800
NoConn ~ 15400 1050
NoConn ~ 15400 1150
NoConn ~ 15400 1250
NoConn ~ 15400 1350
NoConn ~ 15400 1450
NoConn ~ 15400 1550
NoConn ~ 15400 1650
NoConn ~ 15400 1850
NoConn ~ 15400 1750
NoConn ~ 15400 1950
NoConn ~ 15400 2050
NoConn ~ 15400 2150
NoConn ~ 15400 2250
NoConn ~ 15400 2350
NoConn ~ 15400 2450
NoConn ~ 13700 1000
NoConn ~ 15400 3900
NoConn ~ 15400 4000
NoConn ~ 15400 4100
NoConn ~ 15400 4200
NoConn ~ 15400 4300
NoConn ~ 15400 4400
NoConn ~ 15400 4500
NoConn ~ 15400 4600
NoConn ~ 15400 4700
NoConn ~ 15400 4800
NoConn ~ 14700 8600
NoConn ~ 14700 6150
Text Notes 1000 9950 2    60   ~ 0
LEDs
$Comp
L power1:GNDD #PWR013
U 1 1 5A4A8154
P 4000 6350
F 0 "#PWR013" H 4000 6100 50  0001 C CNN
F 1 "GNDD" H 4000 6225 50  0000 C CNN
F 2 "" H 4000 6350 50  0001 C CNN
F 3 "" H 4000 6350 50  0001 C CNN
	1    4000 6350
	1    0    0    -1  
$EndComp
$Comp
L power1:GNDD #PWR014
U 1 1 5A484791
P 15300 7150
F 0 "#PWR014" H 15300 6900 50  0001 C CNN
F 1 "GNDD" H 15300 7025 50  0000 C CNN
F 2 "" H 15300 7150 50  0001 C CNN
F 3 "" H 15300 7150 50  0001 C CNN
	1    15300 7150
	1    0    0    -1  
$EndComp
$Comp
L power1:GNDD #PWR015
U 1 1 5A5E5EB3
P 13700 3000
F 0 "#PWR015" H 13700 2750 50  0001 C CNN
F 1 "GNDD" H 13700 2875 50  0000 C CNN
F 2 "" H 13700 3000 50  0001 C CNN
F 3 "" H 13700 3000 50  0001 C CNN
	1    13700 3000
	1    0    0    -1  
$EndComp
$Comp
L device1:C C26
U 1 1 5A5C8DD4
P 11600 1600
F 0 "C26" H 11625 1700 50  0000 L CNN
F 1 "100n" H 11625 1500 50  0000 L CNN
F 2 "Capacitors_SMD:C_0402" H 11638 1450 50  0001 C CNN
F 3 "" H 11600 1600 50  0001 C CNN
	1    11600 1600
	1    0    0    -1  
$EndComp
$Comp
L device1:C C38
U 1 1 5A5C94AF
P 11600 3550
F 0 "C38" H 11625 3650 50  0000 L CNN
F 1 "100n" H 11625 3450 50  0000 L CNN
F 2 "Capacitors_SMD:C_0402" H 11638 3400 50  0001 C CNN
F 3 "" H 11600 3550 50  0001 C CNN
	1    11600 3550
	1    0    0    -1  
$EndComp
Text GLabel 15400 2700 2    60   Input ~ 0
SLVS0_P
Text GLabel 15400 2800 2    60   Input ~ 0
SLVS0_N
Text GLabel 15400 2900 2    60   Input ~ 0
SLVS1_P
Text GLabel 15400 3000 2    60   Input ~ 0
SLVS1_N
Text GLabel 15400 3100 2    60   Input ~ 0
SLVS2_P
Text GLabel 15400 3200 2    60   Input ~ 0
SLVS2_N
Text GLabel 15400 3300 2    60   Input ~ 0
SLVS3_P
Text GLabel 15400 3400 2    60   Input ~ 0
SLVS3_N
Text GLabel 15400 3500 2    60   Input ~ 0
SLVSC_P
Text GLabel 15400 3600 2    60   Input ~ 0
SLVSC_N
Text GLabel 3300 2850 2    60   Input ~ 0
SLVS0_P
Text GLabel 3300 2750 2    60   Input ~ 0
SLVS0_N
Text GLabel 3300 3050 2    60   Input ~ 0
SLVS1_P
Text GLabel 3300 2950 2    60   Input ~ 0
SLVS1_N
Text GLabel 3300 3550 2    60   Input ~ 0
SLVS2_P
Text GLabel 3300 3450 2    60   Input ~ 0
SLVS2_N
Text GLabel 3300 4050 2    60   Input ~ 0
SLVS3_P
Text GLabel 3300 3950 2    60   Input ~ 0
SLVS3_N
Text GLabel 3300 3350 2    60   Input ~ 0
SLVSC_P
Text GLabel 3300 3250 2    60   Input ~ 0
SLVSC_N
Text GLabel 15400 700  2    60   Input ~ 0
SHUTTER
Text GLabel 3300 1950 2    60   Input ~ 0
SHUTTER
$Comp
L ar0330cm:ar0330CM U9
U 1 1 5A471BC0
P 14550 2750
F 0 "U9" H 14550 2800 60  0000 C CNN
F 1 "ar0330CM" H 14500 2950 60  0000 C CNN
F 2 "parts:CLCC48_0.8mm" H 14400 4600 60  0001 C CNN
F 3 "" H 14400 4600 60  0001 C CNN
	1    14550 2750
	1    0    0    -1  
$EndComp
Text GLabel 13300 1900 0    60   Input ~ 0
S_CLK
Text GLabel 13300 1800 0    60   Input ~ 0
S_DATA
Text GLabel 3300 2450 2    60   Input ~ 0
S_CLK
Text GLabel 3300 2550 2    60   Input ~ 0
S_DATA
Text GLabel 13700 700  0    60   Input ~ 0
RESET
Text GLabel 13700 850  0    60   Input ~ 0
CCD_CLK
Text GLabel 13700 1150 0    60   Input ~ 0
CCD_TRIGGER
Text GLabel 3300 2250 2    60   Input ~ 0
RESET
Text GLabel 3300 2350 2    60   Input ~ 0
CCD_CLK
Text GLabel 3300 2050 2    60   Input ~ 0
CCD_TRIGGER
$Comp
L power1:GNDD #PWR016
U 1 1 5AD762E0
P 11300 3700
F 0 "#PWR016" H 11300 3450 50  0001 C CNN
F 1 "GNDD" H 11300 3550 50  0000 C CNN
F 2 "" H 11300 3700 50  0001 C CNN
F 3 "" H 11300 3700 50  0001 C CNN
	1    11300 3700
	1    0    0    -1  
$EndComp
$Comp
L _linear-regulators:ADP150-2.8 U6
U 1 1 5AD7A6D5
P 7150 8150
F 0 "U6" H 7400 7900 59  0000 C CNN
F 1 "ADP150-2.8" H 7150 8500 59  0000 C CNN
F 2 "TO_SOT_Packages_SMD:TSOT-23-5" H 7050 8150 39  0001 C CNN
F 3 "" H 7050 8150 39  0000 C CNN
	1    7150 8150
	1    0    0    -1  
$EndComp
$Comp
L device1:C C12
U 1 1 5AD7A6DB
P 7900 8100
F 0 "C12" H 7925 8200 50  0000 L CNN
F 1 "1µF" H 7925 8000 50  0000 L CNN
F 2 "Capacitors_SMD:C_0402" H 7938 7950 50  0001 C CNN
F 3 "" H 7900 8100 50  0001 C CNN
	1    7900 8100
	1    0    0    -1  
$EndComp
$Comp
L power1:GNDD #PWR017
U 1 1 5AD7A6E1
P 7150 8650
F 0 "#PWR017" H 7150 8400 50  0001 C CNN
F 1 "GNDD" H 7150 8525 50  0000 C CNN
F 2 "" H 7150 8650 50  0001 C CNN
F 3 "" H 7150 8650 50  0001 C CNN
	1    7150 8650
	1    0    0    -1  
$EndComp
$Comp
L device1:C C10
U 1 1 5AD7A6E9
P 6550 8400
F 0 "C10" H 6575 8500 50  0000 L CNN
F 1 "1µF" H 6575 8300 50  0000 L CNN
F 2 "Capacitors_SMD:C_0402" H 6588 8250 50  0001 C CNN
F 3 "" H 6550 8400 50  0001 C CNN
	1    6550 8400
	1    0    0    -1  
$EndComp
$Comp
L z-turn-lite:Z-TURN-LITE A1
U 1 1 5AD87EDC
P 2250 3650
F 0 "A1" H 2300 3550 60  0000 C CNN
F 1 "Z-TURN-LITE" H 2350 3650 60  0000 C CNN
F 2 "parts:CONN_BTH-060-XX-X-D-LC" H 2500 2250 60  0001 C CNN
F 3 "" H 2500 2250 60  0001 C CNN
	1    2250 3650
	1    0    0    -1  
$EndComp
Text GLabel 1350 1650 0    60   Input ~ 0
VDDIO_35
Text GLabel 3300 1650 2    60   Input ~ 0
VDDIO_35
Text GLabel 5200 2900 0    60   BiDi ~ 0
PMOD7_N
$Comp
L pmod:PMOD-Host-x2-GPIO J5
U 1 1 5ADC4799
P 6500 2450
F 0 "J5" H 6500 2400 50  0000 C CNN
F 1 "PMODx2 North" V 6800 2150 50  0001 C CNN
F 2 "parts:pmod_pin_array_6x2" H 6550 2750 60  0001 C CNN
F 3 "" H 6550 2750 60  0000 C CNN
	1    6500 2450
	1    0    0    -1  
$EndComp
Text GLabel 6350 1900 0    60   BiDi ~ 0
PMOD0_S
Text GLabel 6350 2000 0    60   BiDi ~ 0
PMOD1_S
Text GLabel 6350 2100 0    60   BiDi ~ 0
PMOD2_S
Text GLabel 6350 2200 0    60   BiDi ~ 0
PMOD3_S
Text GLabel 6350 2600 0    60   BiDi ~ 0
PMOD4_S
Text GLabel 6350 2700 0    60   BiDi ~ 0
PMOD5_S
Text GLabel 6350 2800 0    60   BiDi ~ 0
PMOD6_S
Text GLabel 6350 2900 0    60   BiDi ~ 0
PMOD7_S
$Comp
L pmod:PMOD-Host-x1-GPIO J6
U 1 1 5ADC9100
P 7700 2450
F 0 "J6" H 7650 2400 50  0000 C CNN
F 1 "PMOD-Host-x1-GPIO" V 7950 2850 50  0001 C CNN
F 2 "Pin_Headers:Pin_Header_Straight_1x06_Pitch2.54mm" H 7750 2750 60  0001 C CNN
F 3 "" H 7750 2750 60  0000 C CNN
	1    7700 2450
	1    0    0    -1  
$EndComp
Text GLabel 7550 1900 0    60   BiDi ~ 0
PMOD0_E
Text GLabel 7550 2000 0    60   BiDi ~ 0
PMOD1_E
Text GLabel 7550 2100 0    60   BiDi ~ 0
PMOD2_E
Text GLabel 7550 2200 0    60   BiDi ~ 0
PMOD3_E
Text GLabel 11850 5800 0    60   Input ~ 0
VDDIO_35
Text GLabel 11850 8250 0    60   Input ~ 0
VDDIO_35
$Comp
L mcp1727:MCP1727-1V8 U7
U 1 1 5AD817B4
P 9350 8100
F 0 "U7" H 9350 7750 60  0000 C CNN
F 1 "MCP1727-1V8" H 9350 8450 60  0000 C CNN
F 2 "Housings_SOIC:SOIC-8_3.9x4.9mm_Pitch1.27mm" H 9350 7750 60  0001 C CNN
F 3 "" H 9350 7750 60  0001 C CNN
	1    9350 8100
	1    0    0    -1  
$EndComp
$Comp
L mcp1727:MCP1727-3V3 U8
U 1 1 5AD818A9
P 9350 9050
F 0 "U8" H 9350 8700 60  0000 C CNN
F 1 "MCP1727-3V3" H 9350 9400 60  0000 C CNN
F 2 "Housings_SOIC:SOIC-8_3.9x4.9mm_Pitch1.27mm" H 9350 8700 60  0001 C CNN
F 3 "" H 9350 8700 60  0001 C CNN
	1    9350 9050
	1    0    0    -1  
$EndComp
$Comp
L device1:C C17
U 1 1 5AD85C4F
P 8550 9050
F 0 "C17" H 8575 9150 50  0000 L CNN
F 1 "4.7µF" H 8575 8950 50  0000 L CNN
F 2 "Capacitors_SMD:C_0603_HandSoldering" H 8588 8900 50  0001 C CNN
F 3 "" H 8550 9050 50  0001 C CNN
	1    8550 9050
	1    0    0    -1  
$EndComp
$Comp
L power1:GNDD #PWR018
U 1 1 5AD85CD3
P 10400 9200
F 0 "#PWR018" H 10400 8950 50  0001 C CNN
F 1 "GNDD" H 10400 9075 50  0000 C CNN
F 2 "" H 10400 9200 50  0001 C CNN
F 3 "" H 10400 9200 50  0001 C CNN
	1    10400 9200
	1    0    0    -1  
$EndComp
$Comp
L device1:C C20
U 1 1 5AD8C522
P 10400 9050
F 0 "C20" H 10425 9150 50  0000 L CNN
F 1 "1µF" H 10425 8950 50  0000 L CNN
F 2 "Capacitors_SMD:C_0402" H 10438 8900 50  0001 C CNN
F 3 "" H 10400 9050 50  0001 C CNN
	1    10400 9050
	1    0    0    -1  
$EndComp
$Comp
L device1:R R57
U 1 1 5AD90F62
P 10150 9050
F 0 "R57" V 10230 9050 50  0000 C CNN
F 1 "1.5k " V 10150 9050 50  0000 C CNN
F 2 "Resistors_SMD:R_0603_HandSoldering" V 10080 9050 50  0001 C CNN
F 3 "" H 10150 9050 50  0001 C CNN
	1    10150 9050
	1    0    0    -1  
$EndComp
NoConn ~ 9900 9100
$Comp
L power1:GNDD #PWR019
U 1 1 5AD9901F
P 8550 9200
F 0 "#PWR019" H 8550 8950 50  0001 C CNN
F 1 "GNDD" H 8550 9075 50  0000 C CNN
F 2 "" H 8550 9200 50  0001 C CNN
F 3 "" H 8550 9200 50  0001 C CNN
	1    8550 9200
	1    0    0    -1  
$EndComp
$Comp
L device1:C C16
U 1 1 5AD99936
P 8550 8100
F 0 "C16" H 8575 8200 50  0000 L CNN
F 1 "4.7µF" H 8575 8000 50  0000 L CNN
F 2 "Capacitors_SMD:C_0603_HandSoldering" H 8588 7950 50  0001 C CNN
F 3 "" H 8550 8100 50  0001 C CNN
	1    8550 8100
	1    0    0    -1  
$EndComp
$Comp
L power1:GNDD #PWR020
U 1 1 5AD9993C
P 10400 8250
F 0 "#PWR020" H 10400 8000 50  0001 C CNN
F 1 "GNDD" H 10400 8125 50  0000 C CNN
F 2 "" H 10400 8250 50  0001 C CNN
F 3 "" H 10400 8250 50  0001 C CNN
	1    10400 8250
	1    0    0    -1  
$EndComp
$Comp
L device1:C C19
U 1 1 5AD9994C
P 10400 8100
F 0 "C19" H 10425 8200 50  0000 L CNN
F 1 "1µF" H 10425 8000 50  0000 L CNN
F 2 "Capacitors_SMD:C_0402" H 10438 7950 50  0001 C CNN
F 3 "" H 10400 8100 50  0001 C CNN
	1    10400 8100
	1    0    0    -1  
$EndComp
$Comp
L device1:R R56
U 1 1 5AD9995A
P 10150 8100
F 0 "R56" V 10230 8100 50  0000 C CNN
F 1 "1.5k " V 10150 8100 50  0000 C CNN
F 2 "Resistors_SMD:R_0603_HandSoldering" V 10080 8100 50  0001 C CNN
F 3 "" H 10150 8100 50  0001 C CNN
	1    10150 8100
	1    0    0    -1  
$EndComp
NoConn ~ 9900 8150
$Comp
L power1:GNDD #PWR021
U 1 1 5AD99966
P 8550 8250
F 0 "#PWR021" H 8550 8000 50  0001 C CNN
F 1 "GNDD" H 8550 8125 50  0000 C CNN
F 2 "" H 8550 8250 50  0001 C CNN
F 3 "" H 8550 8250 50  0001 C CNN
	1    8550 8250
	1    0    0    -1  
$EndComp
NoConn ~ 2650 7400
NoConn ~ 2950 9300
$Comp
L conn1:GS3 J7
U 1 1 5AD66467
P 13150 1450
F 0 "J7" H 13200 1650 50  0000 C CNN
F 1 "GS3" H 13200 1251 50  0000 C CNN
F 2 "Connectors:GS3" V 13238 1376 50  0001 C CNN
F 3 "" H 13150 1450 50  0001 C CNN
	1    13150 1450
	1    0    0    -1  
$EndComp
$Comp
L power1:GNDD #PWR022
U 1 1 5AD67F4A
P 12950 1550
F 0 "#PWR022" H 12950 1300 50  0001 C CNN
F 1 "GNDD" H 12950 1425 50  0000 C CNN
F 2 "" H 12950 1550 50  0001 C CNN
F 3 "" H 12950 1550 50  0001 C CNN
	1    12950 1550
	1    0    0    -1  
$EndComp
Text GLabel 12950 1350 0    60   Input ~ 0
VDDIO_35
$Comp
L 74lvc1t45gw:74LVC1T45GW U1
U 1 1 5AD858C3
P 2450 10500
F 0 "U1" H 2450 10250 60  0000 C CNN
F 1 "74LVC1T45GW" H 2450 10750 60  0000 C CNN
F 2 "parts:SC-88" H 2450 10500 60  0001 C CNN
F 3 "" H 2450 10500 60  0001 C CNN
	1    2450 10500
	1    0    0    -1  
$EndComp
$Comp
L power1:GNDD #PWR024
U 1 1 5ADAE6F2
P 2450 10850
F 0 "#PWR024" H 2450 10600 50  0001 C CNN
F 1 "GNDD" H 2450 10725 50  0000 C CNN
F 2 "" H 2450 10850 50  0001 C CNN
F 3 "" H 2450 10850 50  0001 C CNN
	1    2450 10850
	1    0    0    -1  
$EndComp
NoConn ~ 2800 7400
NoConn ~ 3350 7900
NoConn ~ 2250 8350
NoConn ~ 2250 8200
NoConn ~ 2650 9300
NoConn ~ 2250 8050
NoConn ~ 3350 8500
NoConn ~ 3350 8050
$Comp
L nqbit:BMX055 U2
U 1 1 5ADA1E24
P 2800 8350
F 0 "U2" H 3100 7500 60  0000 C CNN
F 1 "BMX055" H 2350 7500 60  0000 C CNN
F 2 "parts:BMX055" H 2800 8350 60  0001 C CNN
F 3 "" H 2800 8350 60  0000 C CNN
	1    2800 8350
	1    0    0    -1  
$EndComp
$Comp
L device1:C C2
U 1 1 5AE0B97F
P 3600 8450
F 0 "C2" H 3625 8550 50  0000 L CNN
F 1 "100n" H 3625 8350 50  0000 L CNN
F 2 "Capacitors_SMD:C_0402" H 3638 8300 50  0001 C CNN
F 3 "" H 3600 8450 50  0001 C CNN
	1    3600 8450
	1    0    0    -1  
$EndComp
$Comp
L device1:C C1
U 1 1 5AE0D979
P 1700 9100
F 0 "C1" H 1725 9200 50  0000 L CNN
F 1 "100n" H 1725 9000 50  0000 L CNN
F 2 "Capacitors_SMD:C_0402" H 1738 8950 50  0001 C CNN
F 3 "" H 1700 9100 50  0001 C CNN
	1    1700 9100
	1    0    0    -1  
$EndComp
$Comp
L power1:GNDD #PWR025
U 1 1 5AE25137
P 2450 9550
F 0 "#PWR025" H 2450 9300 50  0001 C CNN
F 1 "GNDD" H 2450 9425 50  0000 C CNN
F 2 "" H 2450 9550 50  0001 C CNN
F 3 "" H 2450 9550 50  0001 C CNN
	1    2450 9550
	1    0    0    -1  
$EndComp
Text GLabel 4950 7550 2    60   Input ~ 0
A_ADDR
$Comp
L conn1:GS3 J1
U 1 1 5AE29718
P 4800 7550
F 0 "J1" H 4850 7750 50  0000 C CNN
F 1 "GS3" H 4850 7351 50  0000 C CNN
F 2 "Connectors:GS3" V 4888 7476 50  0001 C CNN
F 3 "" H 4800 7550 50  0001 C CNN
	1    4800 7550
	1    0    0    -1  
$EndComp
$Comp
L power1:GNDD #PWR026
U 1 1 5AE2971E
P 4500 7650
F 0 "#PWR026" H 4500 7400 50  0001 C CNN
F 1 "GNDD" H 4500 7525 50  0000 C CNN
F 2 "" H 4500 7650 50  0001 C CNN
F 3 "" H 4500 7650 50  0001 C CNN
	1    4500 7650
	1    0    0    -1  
$EndComp
Text GLabel 4500 7450 0    60   Input ~ 0
VDDIO_35
Text GLabel 1600 8500 0    60   Input ~ 0
VDDIO_35
Text GLabel 4950 8100 2    60   Input ~ 0
A_M_ADDR
$Comp
L conn1:GS3 J2
U 1 1 5AE2D4C9
P 4800 8100
F 0 "J2" H 4850 8300 50  0000 C CNN
F 1 "GS3" H 4850 7901 50  0000 C CNN
F 2 "Connectors:GS3" V 4888 8026 50  0001 C CNN
F 3 "" H 4800 8100 50  0001 C CNN
	1    4800 8100
	1    0    0    -1  
$EndComp
$Comp
L power1:GNDD #PWR027
U 1 1 5AE2D4CF
P 4500 8200
F 0 "#PWR027" H 4500 7950 50  0001 C CNN
F 1 "GNDD" H 4500 8075 50  0000 C CNN
F 2 "" H 4500 8200 50  0001 C CNN
F 3 "" H 4500 8200 50  0001 C CNN
	1    4500 8200
	1    0    0    -1  
$EndComp
Text GLabel 4500 8000 0    60   Input ~ 0
VDDIO_35
Text GLabel 4950 8650 2    60   Input ~ 0
G_ADDR
$Comp
L conn1:GS3 J3
U 1 1 5AE2DC91
P 4800 8650
F 0 "J3" H 4850 8850 50  0000 C CNN
F 1 "GS3" H 4850 8451 50  0000 C CNN
F 2 "Connectors:GS3" V 4888 8576 50  0001 C CNN
F 3 "" H 4800 8650 50  0001 C CNN
	1    4800 8650
	1    0    0    -1  
$EndComp
$Comp
L power1:GNDD #PWR028
U 1 1 5AE2DC97
P 4500 8750
F 0 "#PWR028" H 4500 8500 50  0001 C CNN
F 1 "GNDD" H 4500 8625 50  0000 C CNN
F 2 "" H 4500 8750 50  0001 C CNN
F 3 "" H 4500 8750 50  0001 C CNN
	1    4500 8750
	1    0    0    -1  
$EndComp
Text GLabel 4500 8550 0    60   Input ~ 0
VDDIO_35
Text GLabel 1850 10400 0    60   Input ~ 0
VDDIO_35
Text Notes 900  7250 0    60   ~ 0
IMU
Text GLabel 2250 7900 0    60   Input ~ 0
A_M_ADDR
Text GLabel 2250 8650 0    60   Input ~ 0
G_ADDR
Text GLabel 3050 7300 2    60   Input ~ 0
A_ADDR
Text GLabel 11300 1350 1    60   Input ~ 0
VDDIO_35
Text GLabel 1800 10600 0    60   Input ~ 0
WS2812
Text GLabel 1350 3450 0    60   Input ~ 0
WS2812
NoConn ~ 15400 800 
Text GLabel 2250 9400 0    60   Input ~ 0
S_CLK
Text GLabel 2250 8800 0    60   Input ~ 0
S_DATA
Text GLabel 3600 8800 2    60   Input ~ 0
VDDIO_35
Text GLabel 5400 5600 0    60   Input ~ 0
VDDIO_35
$Comp
L device1:R R3
U 1 1 5AED1652
P 5550 5750
F 0 "R3" V 5630 5750 50  0000 C CNN
F 1 "10k" V 5550 5750 50  0000 C CNN
F 2 "Resistors_SMD:R_0603_HandSoldering" V 5480 5750 50  0001 C CNN
F 3 "" H 5550 5750 50  0001 C CNN
	1    5550 5750
	-1   0    0    1   
$EndComp
$Comp
L device1:C C8
U 1 1 5AED23FD
P 5000 6050
F 0 "C8" H 5025 6150 50  0000 L CNN
F 1 "100n" H 5025 5950 50  0000 L CNN
F 2 "Capacitors_SMD:C_0402" H 5038 5900 50  0001 C CNN
F 3 "" H 5000 6050 50  0001 C CNN
	1    5000 6050
	1    0    0    -1  
$EndComp
$Comp
L device1:R R4
U 1 1 5AED40C6
P 5550 6650
F 0 "R4" V 5630 6650 50  0000 C CNN
F 1 "10k" V 5550 6650 50  0000 C CNN
F 2 "Resistors_SMD:R_0603_HandSoldering" V 5480 6650 50  0001 C CNN
F 3 "" H 5550 6650 50  0001 C CNN
	1    5550 6650
	-1   0    0    1   
$EndComp
$Comp
L device1:R R1
U 1 1 5AED413C
P 5300 5900
F 0 "R1" V 5380 5900 50  0000 C CNN
F 1 "10k" V 5300 5900 50  0000 C CNN
F 2 "Resistors_SMD:R_0603_HandSoldering" V 5230 5900 50  0001 C CNN
F 3 "" H 5300 5900 50  0001 C CNN
	1    5300 5900
	0    1    1    0   
$EndComp
$Comp
L device1:R R2
U 1 1 5AED4142
P 5300 6500
F 0 "R2" V 5380 6500 50  0000 C CNN
F 1 "10k" V 5300 6500 50  0000 C CNN
F 2 "Resistors_SMD:R_0603_HandSoldering" V 5230 6500 50  0001 C CNN
F 3 "" H 5300 6500 50  0001 C CNN
	1    5300 6500
	0    1    1    0   
$EndComp
$Comp
L power1:GNDD #PWR029
U 1 1 5AED5BC6
P 4700 6200
F 0 "#PWR029" H 4700 5950 50  0001 C CNN
F 1 "GNDD" H 4700 6075 50  0000 C CNN
F 2 "" H 4700 6200 50  0001 C CNN
F 3 "" H 4700 6200 50  0001 C CNN
	1    4700 6200
	1    0    0    -1  
$EndComp
$Comp
L device1:C C9
U 1 1 5AED9374
P 5000 6350
F 0 "C9" H 5025 6450 50  0000 L CNN
F 1 "100n" H 5025 6250 50  0000 L CNN
F 2 "Capacitors_SMD:C_0402" H 5038 6200 50  0001 C CNN
F 3 "" H 5000 6350 50  0001 C CNN
	1    5000 6350
	1    0    0    -1  
$EndComp
$Comp
L en12:EN12-VS E1
U 1 1 5AEF2CE1
P 5850 6200
F 0 "E1" H 5850 6000 60  0000 C CNN
F 1 "EN12-VS" H 5850 6400 60  0000 C CNN
F 2 "parts:EN12-VS" H 5850 6200 60  0001 C CNN
F 3 "" H 5850 6200 60  0001 C CNN
	1    5850 6200
	1    0    0    -1  
$EndComp
Text GLabel 5400 6800 0    60   Input ~ 0
VDDIO_35
$Comp
L device1:R R5
U 1 1 5AF081CC
P 6250 6400
F 0 "R5" V 6330 6400 50  0000 C CNN
F 1 "10k" V 6250 6400 50  0000 C CNN
F 2 "Resistors_SMD:R_0603_HandSoldering" V 6180 6400 50  0001 C CNN
F 3 "" H 6250 6400 50  0001 C CNN
	1    6250 6400
	-1   0    0    1   
$EndComp
$Comp
L power1:GNDD #PWR030
U 1 1 5AF0A3FC
P 6450 6550
F 0 "#PWR030" H 6450 6300 50  0001 C CNN
F 1 "GNDD" H 6450 6425 50  0000 C CNN
F 2 "" H 6450 6550 50  0001 C CNN
F 3 "" H 6450 6550 50  0001 C CNN
	1    6450 6550
	1    0    0    -1  
$EndComp
Text GLabel 6700 6250 2    60   Input ~ 0
ENC_S
Text GLabel 4850 6500 0    60   Input ~ 0
ENC_B
Text GLabel 4850 5900 0    60   Input ~ 0
ENC_A
Text GLabel 1350 3950 0    60   Input ~ 0
ENC_S
Text GLabel 1350 3550 0    60   Input ~ 0
ENC_A
Text GLabel 1350 4050 0    60   Input ~ 0
ENC_B
Text Notes 5600 5550 0    60   ~ 0
Incremental Encoder
Text GLabel 8200 6800 0    60   Input ~ 0
S_DATA
Text GLabel 8200 6550 0    60   Input ~ 0
S_CLK
Text GLabel 8200 7000 0    60   Input ~ 0
WS2812
$Comp
L power1:GNDD #PWR031
U 1 1 5AF20BF7
P 7600 6950
F 0 "#PWR031" H 7600 6700 50  0001 C CNN
F 1 "GNDD" H 7600 6825 50  0000 C CNN
F 2 "" H 7600 6950 50  0001 C CNN
F 3 "" H 7600 6950 50  0001 C CNN
	1    7600 6950
	1    0    0    -1  
$EndComp
$Comp
L device1:TEST SCL1
U 1 1 5AF20D16
P 8200 6550
F 0 "SCL1" H 8200 6850 50  0000 C BNN
F 1 "TEST" H 8200 6800 50  0000 C CNN
F 2 "Connectors_TestPoints:Test_Point_Pad_2.0x2.0mm" H 8200 6550 50  0001 C CNN
F 3 "" H 8200 6550 50  0001 C CNN
	1    8200 6550
	0    1    1    0   
$EndComp
$Comp
L device1:TEST GND1
U 1 1 5AF20D84
P 7600 6950
F 0 "GND1" H 7600 7250 50  0000 C BNN
F 1 "TEST" H 7600 7200 50  0000 C CNN
F 2 "Connectors_TestPoints:Test_Point_Pad_2.0x2.0mm" H 7600 6950 50  0001 C CNN
F 3 "" H 7600 6950 50  0001 C CNN
	1    7600 6950
	1    0    0    -1  
$EndComp
$Comp
L device1:TEST SDA1
U 1 1 5AF2131B
P 8200 6800
F 0 "SDA1" H 8200 7100 50  0000 C BNN
F 1 "TEST" H 8200 7050 50  0000 C CNN
F 2 "Connectors_TestPoints:Test_Point_Pad_2.0x2.0mm" H 8200 6800 50  0001 C CNN
F 3 "" H 8200 6800 50  0001 C CNN
	1    8200 6800
	0    1    1    0   
$EndComp
$Comp
L device1:TEST LED1
U 1 1 5AF213CD
P 8200 7000
F 0 "LED1" H 8200 7300 50  0000 C BNN
F 1 "TEST" H 8200 7250 50  0000 C CNN
F 2 "Connectors_TestPoints:Test_Point_Pad_2.0x2.0mm" H 8200 7000 50  0001 C CNN
F 3 "" H 8200 7000 50  0001 C CNN
	1    8200 7000
	0    1    1    0   
$EndComp
Text Notes 7450 6500 0    60   ~ 0
TPs
NoConn ~ 2350 -1000
$Comp
L device1:C C42
U 1 1 5AD959B9
P 12050 1600
F 0 "C42" H 12075 1700 50  0000 L CNN
F 1 "1µF" H 12075 1500 50  0000 L CNN
F 2 "Capacitors_SMD:C_0402" H 12088 1450 50  0001 C CNN
F 3 "" H 12050 1600 50  0001 C CNN
	1    12050 1600
	1    0    0    -1  
$EndComp
Text Label 12350 1050 3    60   ~ 0
VDD_IO
$Comp
L power1:GNDD #PWR032
U 1 1 5AD959C0
P 12050 1750
F 0 "#PWR032" H 12050 1500 50  0001 C CNN
F 1 "GNDD" H 12050 1600 50  0000 C CNN
F 2 "" H 12050 1750 50  0001 C CNN
F 3 "" H 12050 1750 50  0001 C CNN
	1    12050 1750
	1    0    0    -1  
$EndComp
$Comp
L device1:C C44
U 1 1 5AD959C6
P 12350 1600
F 0 "C44" H 12375 1700 50  0000 L CNN
F 1 "100n" H 12375 1500 50  0000 L CNN
F 2 "Capacitors_SMD:C_0402" H 12388 1450 50  0001 C CNN
F 3 "" H 12350 1600 50  0001 C CNN
	1    12350 1600
	1    0    0    -1  
$EndComp
Text GLabel 12050 1350 1    60   Input ~ 0
VDDIO_35
$Comp
L device1:C C43
U 1 1 5AD9B771
P 11950 3550
F 0 "C43" H 11975 3650 50  0000 L CNN
F 1 "1µF" H 11975 3450 50  0000 L CNN
F 2 "Capacitors_SMD:C_0402" H 11988 3400 50  0001 C CNN
F 3 "" H 11950 3550 50  0001 C CNN
	1    11950 3550
	1    0    0    -1  
$EndComp
Text Label 12250 3150 3    60   ~ 0
VDD
$Comp
L device1:C C45
U 1 1 5AD9B778
P 12250 3550
F 0 "C45" H 12275 3650 50  0000 L CNN
F 1 "100n" H 12275 3450 50  0000 L CNN
F 2 "Capacitors_SMD:C_0402" H 12288 3400 50  0001 C CNN
F 3 "" H 12250 3550 50  0001 C CNN
	1    12250 3550
	1    0    0    -1  
$EndComp
$Comp
L power1:GNDD #PWR033
U 1 1 5AD9B77E
P 11950 3700
F 0 "#PWR033" H 11950 3450 50  0001 C CNN
F 1 "GNDD" H 11950 3550 50  0000 C CNN
F 2 "" H 11950 3700 50  0001 C CNN
F 3 "" H 11950 3700 50  0001 C CNN
	1    11950 3700
	1    0    0    -1  
$EndComp
$Comp
L device1:C C46
U 1 1 5AD9B873
P 12550 3550
F 0 "C46" H 12575 3650 50  0000 L CNN
F 1 "1µF" H 12575 3450 50  0000 L CNN
F 2 "Capacitors_SMD:C_0402" H 12588 3400 50  0001 C CNN
F 3 "" H 12550 3550 50  0001 C CNN
	1    12550 3550
	1    0    0    -1  
$EndComp
Text Label 12850 3150 3    60   ~ 0
VDD
$Comp
L device1:C C47
U 1 1 5AD9B87A
P 12850 3550
F 0 "C47" H 12875 3650 50  0000 L CNN
F 1 "100n" H 12875 3450 50  0000 L CNN
F 2 "Capacitors_SMD:C_0402" H 12888 3400 50  0001 C CNN
F 3 "" H 12850 3550 50  0001 C CNN
	1    12850 3550
	1    0    0    -1  
$EndComp
$Comp
L power1:GNDD #PWR034
U 1 1 5AD9B880
P 12550 3700
F 0 "#PWR034" H 12550 3450 50  0001 C CNN
F 1 "GNDD" H 12550 3550 50  0000 C CNN
F 2 "" H 12550 3700 50  0001 C CNN
F 3 "" H 12550 3700 50  0001 C CNN
	1    12550 3700
	1    0    0    -1  
$EndComp
$Comp
L device1:C C30
U 1 1 5ADC0380
P 900 10600
F 0 "C30" H 925 10700 50  0000 L CNN
F 1 "100n" H 925 10500 50  0000 L CNN
F 2 "Capacitors_SMD:C_0402" H 938 10450 50  0001 C CNN
F 3 "" H 900 10600 50  0001 C CNN
	1    900  10600
	1    0    0    -1  
$EndComp
$Comp
L device1:C C31
U 1 1 5ADC0696
P 1150 10600
F 0 "C31" H 1175 10700 50  0000 L CNN
F 1 "100n" H 1175 10500 50  0000 L CNN
F 2 "Capacitors_SMD:C_0402" H 1188 10450 50  0001 C CNN
F 3 "" H 1150 10600 50  0001 C CNN
	1    1150 10600
	1    0    0    -1  
$EndComp
Text GLabel 900  10450 1    60   Input ~ 0
VDDIO_35
$Comp
L power1:GNDD #PWR035
U 1 1 5AD7611D
P 900 10750
F 0 "#PWR035" H 900 10500 50  0001 C CNN
F 1 "GNDD" H 900 10625 50  0000 C CNN
F 2 "" H 900 10750 50  0001 C CNN
F 3 "" H 900 10750 50  0001 C CNN
	1    900  10750
	1    0    0    -1  
$EndComp
$Comp
L power1:GNDD #PWR036
U 1 1 5AD76D21
P 1150 10750
F 0 "#PWR036" H 1150 10500 50  0001 C CNN
F 1 "GNDD" H 1150 10625 50  0000 C CNN
F 2 "" H 1150 10750 50  0001 C CNN
F 3 "" H 1150 10750 50  0001 C CNN
	1    1150 10750
	1    0    0    -1  
$EndComp
$Comp
L device1:R R110
U 1 1 5AD8B97D
P 12300 6650
F 0 "R110" V 12380 6650 50  0000 C CNN
F 1 "15k" V 12300 6650 50  0000 C CNN
F 2 "Resistors_SMD:R_0603_HandSoldering" V 12230 6650 50  0001 C CNN
F 3 "" H 12300 6650 50  0001 C CNN
	1    12300 6650
	1    0    0    -1  
$EndComp
$Comp
L device1:R R112
U 1 1 5AD8B983
P 12500 6650
F 0 "R112" V 12580 6650 50  0000 C CNN
F 1 "15k " V 12500 6650 50  0000 C CNN
F 2 "Resistors_SMD:R_0603_HandSoldering" V 12430 6650 50  0001 C CNN
F 3 "" H 12500 6650 50  0001 C CNN
	1    12500 6650
	1    0    0    -1  
$EndComp
$Comp
L device1:R R111
U 1 1 5ADA8FEC
P 12300 9100
F 0 "R111" V 12380 9100 50  0000 C CNN
F 1 "15k" V 12300 9100 50  0000 C CNN
F 2 "Resistors_SMD:R_0603_HandSoldering" V 12230 9100 50  0001 C CNN
F 3 "" H 12300 9100 50  0001 C CNN
	1    12300 9100
	1    0    0    -1  
$EndComp
$Comp
L device1:R R113
U 1 1 5ADA8FF2
P 12500 9100
F 0 "R113" V 12580 9100 50  0000 C CNN
F 1 "15k " V 12500 9100 50  0000 C CNN
F 2 "Resistors_SMD:R_0603_HandSoldering" V 12430 9100 50  0001 C CNN
F 3 "" H 12500 9100 50  0001 C CNN
	1    12500 9100
	1    0    0    -1  
$EndComp
$Comp
L power1:+3V3 #PWR037
U 1 1 5AEAF11C
P 7100 2500
F 0 "#PWR037" H 7100 2350 50  0001 C CNN
F 1 "+3V3" H 7100 2640 50  0000 C CNN
F 2 "" H 7100 2500 50  0001 C CNN
F 3 "" H 7100 2500 50  0001 C CNN
	1    7100 2500
	1    0    0    -1  
$EndComp
$Comp
L power1:GNDD #PWR038
U 1 1 5AEB1D5E
P 7300 2300
F 0 "#PWR038" H 7300 2050 50  0001 C CNN
F 1 "GNDD" H 7300 2175 50  0000 C CNN
F 2 "" H 7300 2300 50  0001 C CNN
F 3 "" H 7300 2300 50  0001 C CNN
	1    7300 2300
	1    0    0    -1  
$EndComp
$Comp
L power1:+3V3 #PWR039
U 1 1 5AEB3EB7
P 5900 3200
F 0 "#PWR039" H 5900 3050 50  0001 C CNN
F 1 "+3V3" H 5900 3340 50  0000 C CNN
F 2 "" H 5900 3200 50  0001 C CNN
F 3 "" H 5900 3200 50  0001 C CNN
	1    5900 3200
	1    0    0    -1  
$EndComp
$Comp
L power1:GNDD #PWR040
U 1 1 5AEB3EBD
P 6100 3000
F 0 "#PWR040" H 6100 2750 50  0001 C CNN
F 1 "GNDD" H 6100 2875 50  0000 C CNN
F 2 "" H 6100 3000 50  0001 C CNN
F 3 "" H 6100 3000 50  0001 C CNN
	1    6100 3000
	1    0    0    -1  
$EndComp
$Comp
L power1:+3V3 #PWR041
U 1 1 5AEB5075
P 5900 2500
F 0 "#PWR041" H 5900 2350 50  0001 C CNN
F 1 "+3V3" H 5900 2640 50  0000 C CNN
F 2 "" H 5900 2500 50  0001 C CNN
F 3 "" H 5900 2500 50  0001 C CNN
	1    5900 2500
	1    0    0    -1  
$EndComp
$Comp
L power1:GNDD #PWR042
U 1 1 5AEB507B
P 6100 2300
F 0 "#PWR042" H 6100 2050 50  0001 C CNN
F 1 "GNDD" H 6100 2175 50  0000 C CNN
F 2 "" H 6100 2300 50  0001 C CNN
F 3 "" H 6100 2300 50  0001 C CNN
	1    6100 2300
	1    0    0    -1  
$EndComp
$Comp
L power1:+3V3 #PWR043
U 1 1 5AEB6647
P 4750 3200
F 0 "#PWR043" H 4750 3050 50  0001 C CNN
F 1 "+3V3" H 4750 3340 50  0000 C CNN
F 2 "" H 4750 3200 50  0001 C CNN
F 3 "" H 4750 3200 50  0001 C CNN
	1    4750 3200
	1    0    0    -1  
$EndComp
$Comp
L power1:GNDD #PWR044
U 1 1 5AEB664D
P 4950 3000
F 0 "#PWR044" H 4950 2750 50  0001 C CNN
F 1 "GNDD" H 4950 2875 50  0000 C CNN
F 2 "" H 4950 3000 50  0001 C CNN
F 3 "" H 4950 3000 50  0001 C CNN
	1    4950 3000
	1    0    0    -1  
$EndComp
$Comp
L power1:+3V3 #PWR045
U 1 1 5AEB78B3
P 4750 2500
F 0 "#PWR045" H 4750 2350 50  0001 C CNN
F 1 "+3V3" H 4750 2640 50  0000 C CNN
F 2 "" H 4750 2500 50  0001 C CNN
F 3 "" H 4750 2500 50  0001 C CNN
	1    4750 2500
	1    0    0    -1  
$EndComp
$Comp
L power1:GNDD #PWR046
U 1 1 5AEB78B9
P 4950 2300
F 0 "#PWR046" H 4950 2050 50  0001 C CNN
F 1 "GNDD" H 4950 2175 50  0000 C CNN
F 2 "" H 4950 2300 50  0001 C CNN
F 3 "" H 4950 2300 50  0001 C CNN
	1    4950 2300
	1    0    0    -1  
$EndComp
Wire Wire Line
	4000 6350 3300 6350
Connection ~ 7150 8650
Wire Wire Line
	7900 8650 7900 8250
Wire Wire Line
	6550 8650 7150 8650
Wire Wire Line
	7150 8650 7900 8650
Wire Wire Line
	7750 7950 7900 7950
Connection ~ 11600 3400
Connection ~ 11600 1450
Wire Wire Line
	11600 1450 11600 1050
Wire Wire Line
	11300 1750 11600 1750
Wire Wire Line
	13400 2300 13550 2300
Wire Wire Line
	13400 2250 13400 2300
Connection ~ 13550 1800
Wire Wire Line
	13550 1950 13550 1800
Connection ~ 13400 1900
Wire Wire Line
	13400 1950 13400 1900
Wire Wire Line
	13300 1700 13700 1700
Wire Wire Line
	13300 1800 13550 1800
Wire Wire Line
	13550 1800 13700 1800
Wire Wire Line
	13300 1900 13400 1900
Wire Wire Line
	13400 1900 13700 1900
Connection ~ 11300 3700
Connection ~ 11300 1750
Connection ~ 13700 2600
Connection ~ 13700 2700
Connection ~ 13700 2800
Connection ~ 13700 2900
Wire Wire Line
	13700 3250 13700 3350
Wire Wire Line
	13700 3350 13700 3450
Connection ~ 13700 3350
Wire Wire Line
	13700 3700 13700 3800
Wire Wire Line
	13100 4600 13700 4600
Connection ~ 13700 3700
Wire Wire Line
	13700 1250 13550 1250
Connection ~ 13700 2500
Wire Wire Line
	12950 4200 13700 4200
Wire Wire Line
	13100 3700 13550 3700
Wire Wire Line
	13550 3700 13700 3700
Wire Wire Line
	12250 4700 11950 4700
Connection ~ 11950 4700
Wire Wire Line
	12250 4150 12250 4400
Connection ~ 12250 4400
Wire Wire Line
	13100 4300 13700 4300
Wire Wire Line
	13100 4400 13700 4400
Wire Wire Line
	13100 3350 13700 3350
Wire Wire Line
	13100 4700 13700 4700
Wire Wire Line
	13100 4100 13700 4100
Wire Wire Line
	11600 4700 11300 4700
Connection ~ 11300 4700
Wire Wire Line
	11600 3950 11600 4400
Wire Wire Line
	11300 3700 11600 3700
Wire Wire Line
	11600 3400 11600 3150
Wire Wire Line
	11600 2850 11300 2850
Wire Wire Line
	11600 2000 11600 2550
Connection ~ 11600 2550
Wire Wire Line
	12250 2850 11950 2850
Wire Wire Line
	12250 1850 12250 2550
Connection ~ 12250 2550
Connection ~ 11600 4400
Connection ~ 11300 2850
Connection ~ 11950 2850
Wire Wire Line
	12850 2850 12550 2850
Wire Wire Line
	12850 2100 12850 2550
Connection ~ 12850 2550
Connection ~ 12550 2850
Connection ~ 11300 1450
Wire Wire Line
	13550 2250 13550 2300
Wire Wire Line
	13550 2300 13550 3700
Connection ~ 13550 3700
Wire Wire Line
	3300 6650 3500 6650
Connection ~ 13550 2300
Connection ~ 3300 6650
Wire Wire Line
	1350 6800 3300 6800
Wire Wire Line
	4000 1050 4000 1550
Wire Wire Line
	4000 1550 4000 2150
Wire Wire Line
	4000 2150 4000 2650
Wire Wire Line
	4000 2650 4000 3150
Wire Wire Line
	4000 3150 4000 3650
Wire Wire Line
	4000 3650 4000 4150
Wire Wire Line
	4000 4150 4000 4650
Wire Wire Line
	4000 4650 4000 5250
Wire Wire Line
	4000 5250 4000 5750
Wire Wire Line
	4000 5750 4000 6250
Wire Wire Line
	4000 6250 4000 6350
Connection ~ 4000 5750
Connection ~ 4000 5250
Connection ~ 4000 4650
Wire Wire Line
	4000 3650 3300 3650
Connection ~ 4000 4150
Wire Wire Line
	750  3150 1350 3150
Connection ~ 4000 3650
Wire Wire Line
	750  2650 1350 2650
Connection ~ 4000 3150
Wire Wire Line
	750  2150 1350 2150
Connection ~ 4000 2650
Wire Wire Line
	750  1550 1350 1550
Connection ~ 4000 2150
Connection ~ 4000 1550
Wire Wire Line
	750  3650 1350 3650
Connection ~ 750  4250
Wire Wire Line
	3300 3150 4000 3150
Connection ~ 750  3650
Wire Wire Line
	3300 2650 4000 2650
Connection ~ 750  3150
Wire Wire Line
	3300 2150 4000 2150
Connection ~ 750  2650
Connection ~ 750  2150
Wire Wire Line
	4000 1050 3300 1050
Connection ~ 750  1550
Wire Wire Line
	4000 5750 3300 5750
Wire Wire Line
	750  6250 1350 6250
Connection ~ 750  5750
Wire Wire Line
	3300 6250 4000 6250
Connection ~ 4000 6250
Wire Wire Line
	13700 2300 13700 2500
Wire Wire Line
	13700 2500 13700 2600
Wire Wire Line
	13700 2600 13700 2700
Wire Wire Line
	13700 2700 13700 2800
Wire Wire Line
	13700 2800 13700 2900
Wire Wire Line
	13700 2900 13700 3000
Wire Wire Line
	3300 6800 3300 6650
Wire Wire Line
	1350 6650 1350 6800
Wire Wire Line
	750  1050 750  1550
Wire Wire Line
	750  1550 750  2150
Wire Wire Line
	750  2150 750  2650
Wire Wire Line
	750  2650 750  3150
Wire Wire Line
	750  3150 750  3650
Wire Wire Line
	750  3650 750  4250
Wire Wire Line
	750  4250 750  4750
Wire Wire Line
	750  4750 750  5250
Wire Wire Line
	750  5250 750  5750
Wire Wire Line
	750  5750 750  6250
Wire Wire Line
	14700 7850 15300 7850
Wire Wire Line
	15300 7650 15300 7850
Wire Wire Line
	15300 7850 15300 8150
Wire Wire Line
	15300 8150 15300 8450
Wire Wire Line
	15300 8450 15300 8700
Wire Wire Line
	15300 8700 15300 9000
Wire Wire Line
	15300 9000 15300 9300
Wire Wire Line
	15300 9300 15300 9600
Wire Wire Line
	12400 7650 15300 7650
Wire Wire Line
	12400 7650 12400 7850
Wire Wire Line
	12400 7850 12400 8150
Wire Wire Line
	12400 7850 13000 7850
Wire Wire Line
	15300 8450 14700 8450
Connection ~ 15300 7850
Wire Wire Line
	15300 9000 14700 9000
Connection ~ 15300 8450
Wire Wire Line
	15300 9300 14700 9300
Connection ~ 15300 9000
Wire Wire Line
	15300 9600 14700 9600
Connection ~ 15300 9300
Wire Wire Line
	12400 8150 13000 8150
Connection ~ 12400 7850
Wire Wire Line
	15300 8700 14700 8700
Connection ~ 15300 8700
Connection ~ 15300 9600
Wire Wire Line
	15300 8150 14700 8150
Connection ~ 15300 8150
Wire Wire Line
	14700 5400 15300 5400
Wire Wire Line
	15300 5200 15300 5400
Wire Wire Line
	15300 5400 15300 5700
Wire Wire Line
	15300 5700 15300 6000
Wire Wire Line
	15300 6000 15300 6250
Wire Wire Line
	15300 6250 15300 6550
Wire Wire Line
	15300 6550 15300 6850
Wire Wire Line
	15300 6850 15300 7150
Wire Wire Line
	12400 5200 15300 5200
Wire Wire Line
	12400 5200 12400 5400
Wire Wire Line
	12400 5400 12400 5700
Wire Wire Line
	12400 5400 13000 5400
Wire Wire Line
	15300 6000 14700 6000
Connection ~ 15300 5400
Wire Wire Line
	15300 6550 14700 6550
Connection ~ 15300 6000
Wire Wire Line
	15300 6850 14700 6850
Connection ~ 15300 6550
Connection ~ 15300 6850
Wire Wire Line
	12400 5700 13000 5700
Connection ~ 12400 5400
Wire Wire Line
	15300 6250 14700 6250
Connection ~ 15300 6250
Connection ~ 15300 7150
Wire Wire Line
	12200 6000 13000 6000
Wire Wire Line
	15300 5700 14700 5700
Connection ~ 15300 5700
Wire Notes Line
	11300 9800 11300 5100
Wire Notes Line
	11300 5100 15950 5100
Wire Notes Line
	15950 5100 15950 9800
Wire Notes Line
	15950 9800 11300 9800
Wire Wire Line
	11850 8250 12300 8250
Wire Wire Line
	12300 8250 12500 8250
Wire Wire Line
	12500 8250 12650 8250
Wire Wire Line
	12650 8250 13000 8250
Wire Wire Line
	11850 5800 12300 5800
Wire Wire Line
	12300 5800 12500 5800
Wire Wire Line
	12500 5800 12650 5800
Wire Wire Line
	12650 5800 13000 5800
Wire Wire Line
	12650 6950 13000 6950
Wire Wire Line
	12650 8250 12650 9400
Wire Wire Line
	12650 9400 13000 9400
Wire Wire Line
	7100 9150 7400 9150
Wire Wire Line
	3300 1550 4000 1550
Wire Wire Line
	15300 7150 14700 7150
Connection ~ 13700 3000
Connection ~ 750  5250
Wire Wire Line
	4000 5250 3300 5250
Connection ~ 750  4750
Wire Wire Line
	12650 6950 12650 5800
Connection ~ 12650 5800
Wire Wire Line
	12200 5900 13000 5900
Wire Wire Line
	12150 8350 13000 8350
Wire Wire Line
	8550 8900 8750 8900
Wire Wire Line
	8750 8900 8850 8900
Wire Wire Line
	8750 8900 8750 9000
Wire Wire Line
	8750 9000 8750 9100
Wire Wire Line
	8750 9000 8850 9000
Connection ~ 8750 8900
Wire Wire Line
	8550 9200 8850 9200
Connection ~ 8550 9200
Wire Wire Line
	9900 8900 10000 8900
Wire Wire Line
	10000 8900 10150 8900
Wire Wire Line
	10150 8900 10400 8900
Wire Wire Line
	9900 9000 10000 9000
Wire Wire Line
	10000 9000 10000 8900
Connection ~ 10000 8900
Wire Wire Line
	9900 9200 10150 9200
Connection ~ 10150 8900
Wire Wire Line
	8750 9100 8850 9100
Connection ~ 8750 9000
Wire Wire Line
	8550 7950 8750 7950
Wire Wire Line
	8750 7950 8850 7950
Wire Wire Line
	8750 7950 8750 8050
Wire Wire Line
	8750 8050 8750 8150
Wire Wire Line
	8750 8050 8850 8050
Connection ~ 8750 7950
Wire Wire Line
	8550 8250 8850 8250
Connection ~ 8550 8250
Wire Wire Line
	9900 7950 10000 7950
Wire Wire Line
	10000 7950 10150 7950
Wire Wire Line
	10150 7950 10400 7950
Wire Wire Line
	9900 8050 10000 8050
Wire Wire Line
	10000 8050 10000 7950
Connection ~ 10000 7950
Wire Wire Line
	9900 8250 10150 8250
Connection ~ 10150 7950
Wire Wire Line
	8750 8150 8850 8150
Connection ~ 8750 8050
Wire Wire Line
	12950 1350 13000 1350
Wire Wire Line
	12950 1550 13000 1550
Wire Wire Line
	1950 10500 1850 10500
Wire Wire Line
	1850 10500 1850 10850
Wire Wire Line
	1850 10850 2450 10850
Wire Wire Line
	2450 10850 3050 10850
Wire Wire Line
	3050 10850 3050 10500
Wire Wire Line
	3050 10500 2950 10500
Wire Wire Line
	1950 10600 1800 10600
Wire Notes Line
	700  9850 700  11050
Wire Wire Line
	3350 8350 3450 8350
Wire Wire Line
	3450 8350 3450 8650
Wire Wire Line
	3450 8650 3450 9550
Wire Wire Line
	3350 8650 3450 8650
Wire Wire Line
	3450 8650 3600 8650
Connection ~ 3450 8650
Wire Wire Line
	3600 8800 3350 8800
Wire Wire Line
	2800 9400 2800 9300
Wire Wire Line
	2950 7400 2950 7300
Wire Wire Line
	3600 8650 3600 8600
Wire Wire Line
	3450 9550 2450 9550
Wire Wire Line
	1700 8500 1700 8950
Connection ~ 1700 8500
Wire Wire Line
	1700 9550 1700 9250
Wire Wire Line
	2250 9400 2800 9400
Wire Wire Line
	4500 7450 4650 7450
Wire Wire Line
	4500 7650 4650 7650
Wire Wire Line
	4500 8000 4650 8000
Wire Wire Line
	4500 8200 4650 8200
Wire Wire Line
	4500 8550 4650 8550
Wire Wire Line
	4500 8750 4650 8750
Wire Notes Line
	6000 7550 10700 7550
Wire Notes Line
	10700 7550 10700 9500
Wire Notes Line
	10700 9500 6000 9500
Wire Notes Line
	6000 9500 6000 7550
Wire Notes Line
	800  7150 800  9750
Wire Notes Line
	800  9750 5650 9750
Wire Notes Line
	5650 9750 5650 7150
Wire Notes Line
	5650 7150 800  7150
Wire Wire Line
	2950 7300 3050 7300
Wire Wire Line
	13300 1700 13300 1450
Wire Wire Line
	11300 1450 11300 1350
Wire Notes Line
	11100 550  11100 4950
Wire Notes Line
	11100 4950 15950 4950
Wire Notes Line
	15950 4950 15950 550 
Wire Notes Line
	15950 550  11100 550 
Wire Wire Line
	3600 8300 3600 8200
Wire Wire Line
	12150 8450 13000 8450
Wire Wire Line
	5450 5900 5550 5900
Wire Wire Line
	4850 5900 5000 5900
Wire Wire Line
	5000 5900 5150 5900
Wire Wire Line
	5550 6200 5000 6200
Wire Wire Line
	5550 6500 5550 6300
Wire Wire Line
	5450 6500 5550 6500
Wire Wire Line
	5550 5900 5550 6100
Wire Wire Line
	4850 6500 5000 6500
Wire Wire Line
	5000 6500 5150 6500
Connection ~ 5000 5900
Connection ~ 5000 6500
Connection ~ 5550 6500
Connection ~ 5550 5900
Wire Wire Line
	5400 5600 5550 5600
Wire Wire Line
	5550 5600 6200 5600
Wire Wire Line
	5400 6800 5550 6800
Connection ~ 5550 5600
Wire Notes Line
	7050 6950 7050 5450
Wire Notes Line
	4500 5450 4500 6950
Connection ~ 2450 10850
Wire Notes Line
	7400 6400 7400 7150
Wire Notes Line
	7400 7150 8600 7150
Wire Notes Line
	8600 7150 8600 6400
Wire Notes Line
	8600 6400 7400 6400
Wire Wire Line
	1600 8500 1700 8500
Wire Wire Line
	1700 8500 2250 8500
Connection ~ 12350 1450
Wire Wire Line
	12350 1450 12350 1050
Wire Wire Line
	12050 1750 12350 1750
Connection ~ 12050 1750
Connection ~ 12050 1450
Wire Wire Line
	12050 1450 12050 1350
Connection ~ 12250 3400
Connection ~ 11950 3700
Wire Wire Line
	11950 3700 12250 3700
Wire Wire Line
	12250 3400 12250 3150
Connection ~ 12850 3400
Connection ~ 12550 3700
Wire Wire Line
	12550 3700 12850 3700
Wire Wire Line
	12850 3400 12850 3150
Wire Wire Line
	1850 10400 1950 10400
Wire Wire Line
	12200 7050 12500 7050
Wire Wire Line
	12500 7050 13000 7050
Wire Wire Line
	12200 7150 12300 7150
Wire Wire Line
	12300 7150 13000 7150
Wire Wire Line
	12500 6800 12500 7050
Connection ~ 12500 7050
Wire Wire Line
	12500 6500 12500 5800
Connection ~ 12500 5800
Wire Wire Line
	12300 6500 12300 5800
Connection ~ 12300 5800
Wire Wire Line
	12300 6800 12300 7150
Connection ~ 12300 7150
Wire Wire Line
	12500 9250 12500 9500
Wire Wire Line
	12300 9250 12300 9600
Wire Wire Line
	12200 9500 12500 9500
Wire Wire Line
	12500 9500 13000 9500
Connection ~ 12500 9500
Connection ~ 12300 9600
Wire Wire Line
	12200 9600 12300 9600
Wire Wire Line
	12300 9600 13000 9600
Wire Wire Line
	4000 4650 3300 4650
Wire Wire Line
	4000 4150 3300 4150
Wire Wire Line
	1350 5750 750  5750
Wire Wire Line
	1350 5250 750  5250
Wire Wire Line
	1350 4750 750  4750
Wire Wire Line
	1350 4250 750  4250
Wire Wire Line
	7100 2500 7500 2500
Wire Wire Line
	7500 2500 7500 2400
Wire Wire Line
	7500 2400 7550 2400
Wire Wire Line
	7300 2300 7550 2300
Wire Wire Line
	5900 3200 6300 3200
Wire Wire Line
	6300 3200 6300 3100
Wire Wire Line
	6300 3100 6350 3100
Wire Wire Line
	6100 3000 6350 3000
Wire Wire Line
	5900 2500 6300 2500
Wire Wire Line
	6300 2500 6300 2400
Wire Wire Line
	6300 2400 6350 2400
Wire Wire Line
	6100 2300 6350 2300
Wire Wire Line
	4750 3200 5150 3200
Wire Wire Line
	5150 3200 5150 3100
Wire Wire Line
	5150 3100 5200 3100
Wire Wire Line
	4950 3000 5200 3000
Wire Wire Line
	4750 2500 5150 2500
Wire Wire Line
	5150 2500 5150 2400
Wire Wire Line
	5150 2400 5200 2400
Wire Wire Line
	4950 2300 5200 2300
Wire Wire Line
	750  1050 1350 1050
Connection ~ 750  6250
Connection ~ 4000 6350
Wire Wire Line
	6550 8150 6550 8250
Wire Wire Line
	6550 8650 6550 8550
Wire Wire Line
	12500 8950 12500 8250
Wire Wire Line
	12300 8950 12300 8250
Connection ~ 12650 8250
Connection ~ 12500 8250
Connection ~ 12300 8250
Wire Notes Line
	4600 3500 8000 3500
Wire Notes Line
	8000 1650 4600 1650
$Comp
L device1:Ferrite_Bead L1
U 1 1 5AFA7BAD
P 11450 1450
F 0 "L1" V 11300 1450 50  0000 C CNN
F 1 "FB" V 11500 1450 50  0000 C CNN
F 2 "parts:ferrite_bead_0402_handsoldering" V 11380 1450 50  0001 C CNN
F 3 "" H 11450 1450 50  0001 C CNN
	1    11450 1450
	0    -1   -1   0   
$EndComp
$Comp
L device1:Ferrite_Bead L8
U 1 1 5AFB5E7D
P 12200 1450
F 0 "L8" V 12050 1450 50  0000 C CNN
F 1 "FB" V 12250 1450 50  0000 C CNN
F 2 "parts:ferrite_bead_0402_handsoldering" V 12130 1450 50  0001 C CNN
F 3 "" H 12200 1450 50  0001 C CNN
	1    12200 1450
	0    -1   -1   0   
$EndComp
$Comp
L device1:Ferrite_Bead L2
U 1 1 5AFB9895
P 11450 2550
F 0 "L2" V 11300 2550 50  0000 C CNN
F 1 "FB" V 11500 2550 50  0000 C CNN
F 2 "parts:ferrite_bead_0402_handsoldering" V 11380 2550 50  0001 C CNN
F 3 "" H 11450 2550 50  0001 C CNN
	1    11450 2550
	0    -1   -1   0   
$EndComp
$Comp
L device1:Ferrite_Bead L5
U 1 1 5AFBE400
P 12100 2550
F 0 "L5" V 11950 2550 50  0000 C CNN
F 1 "FB" V 12150 2550 50  0000 C CNN
F 2 "parts:ferrite_bead_0402_handsoldering" V 12030 2550 50  0001 C CNN
F 3 "" H 12100 2550 50  0001 C CNN
	1    12100 2550
	0    -1   -1   0   
$EndComp
$Comp
L device1:Ferrite_Bead L9
U 1 1 5AFC301A
P 12700 2550
F 0 "L9" V 12550 2550 50  0000 C CNN
F 1 "FB" V 12750 2550 50  0000 C CNN
F 2 "parts:ferrite_bead_0402_handsoldering" V 12630 2550 50  0001 C CNN
F 3 "" H 12700 2550 50  0001 C CNN
	1    12700 2550
	0    -1   -1   0   
$EndComp
$Comp
L device1:Ferrite_Bead L3
U 1 1 5AFC7BC7
P 11450 3400
F 0 "L3" V 11300 3400 50  0000 C CNN
F 1 "FB" V 11500 3400 50  0000 C CNN
F 2 "parts:ferrite_bead_0402_handsoldering" V 11380 3400 50  0001 C CNN
F 3 "" H 11450 3400 50  0001 C CNN
	1    11450 3400
	0    -1   -1   0   
$EndComp
$Comp
L device1:Ferrite_Bead L6
U 1 1 5AFCC67F
P 12100 3400
F 0 "L6" V 11950 3400 50  0000 C CNN
F 1 "FB" V 12150 3400 50  0000 C CNN
F 2 "parts:ferrite_bead_0402_handsoldering" V 12030 3400 50  0001 C CNN
F 3 "" H 12100 3400 50  0001 C CNN
	1    12100 3400
	0    -1   -1   0   
$EndComp
$Comp
L device1:Ferrite_Bead L10
U 1 1 5AFCDA04
P 12700 3400
F 0 "L10" V 12550 3400 50  0000 C CNN
F 1 "FB" V 12750 3400 50  0000 C CNN
F 2 "parts:ferrite_bead_0402_handsoldering" V 12630 3400 50  0001 C CNN
F 3 "" H 12700 3400 50  0001 C CNN
	1    12700 3400
	0    -1   -1   0   
$EndComp
$Comp
L device1:Ferrite_Bead L4
U 1 1 5AFD3D74
P 11450 4400
F 0 "L4" V 11300 4400 50  0000 C CNN
F 1 "FB" V 11500 4400 50  0000 C CNN
F 2 "parts:ferrite_bead_0402_handsoldering" V 11380 4400 50  0001 C CNN
F 3 "" H 11450 4400 50  0001 C CNN
	1    11450 4400
	0    -1   -1   0   
$EndComp
$Comp
L device1:Ferrite_Bead L7
U 1 1 5AFD458D
P 12100 4400
F 0 "L7" V 11950 4400 50  0000 C CNN
F 1 "FB" V 12150 4400 50  0000 C CNN
F 2 "parts:ferrite_bead_0402_handsoldering" V 12030 4400 50  0001 C CNN
F 3 "" H 12100 4400 50  0001 C CNN
	1    12100 4400
	0    -1   -1   0   
$EndComp
$Comp
L power1:GNDD #PWR0101
U 1 1 5B0289BF
P 7700 3200
F 0 "#PWR0101" H 7700 2950 50  0001 C CNN
F 1 "GNDD" H 7704 3045 50  0000 C CNN
F 2 "" H 7700 3200 50  0001 C CNN
F 3 "" H 7700 3200 50  0001 C CNN
	1    7700 3200
	1    0    0    -1  
$EndComp
Wire Notes Line
	8000 1650 8000 3500
Wire Notes Line
	4600 1650 4600 3500
$Comp
L device1:C C5
U 1 1 5AF7681A
P 6650 6400
F 0 "C5" H 6550 6300 50  0000 L CNN
F 1 "100n" H 6675 6300 50  0000 L CNN
F 2 "Capacitors_SMD:C_0402" H 6688 6250 50  0001 C CNN
F 3 "" H 6650 6400 50  0001 C CNN
	1    6650 6400
	1    0    0    -1  
$EndComp
$Comp
L device1:R R6
U 1 1 5AF76820
P 6450 6250
F 0 "R6" V 6530 6250 50  0000 C CNN
F 1 "10k" V 6450 6250 50  0000 C CNN
F 2 "Resistors_SMD:R_0603_HandSoldering" V 6380 6250 50  0001 C CNN
F 3 "" H 6450 6250 50  0001 C CNN
	1    6450 6250
	0    -1   -1   0   
$EndComp
Wire Wire Line
	6200 5600 6200 6150
Wire Notes Line
	4500 5450 7050 5450
Wire Notes Line
	4500 6950 7050 6950
Connection ~ 5000 6200
Wire Wire Line
	5000 6200 4700 6200
Wire Wire Line
	6600 6250 6650 6250
Wire Wire Line
	6200 6250 6250 6250
Connection ~ 6250 6250
Wire Wire Line
	6250 6250 6300 6250
Connection ~ 6650 6250
Wire Wire Line
	6650 6250 6700 6250
Wire Wire Line
	6250 6550 6450 6550
Connection ~ 6450 6550
Wire Wire Line
	6450 6550 6650 6550
$Comp
L ws2812b:ws2812b D1
U 1 1 5B6EB294
P 4200 10400
F 0 "D1" H 4200 10250 60  0000 C CNN
F 1 "ws2812b" H 4200 10650 60  0000 C CNN
F 2 "LEDs:LED_WS2812B-PLCC4" H 4200 10700 60  0001 C CNN
F 3 "" H 4200 10700 60  0001 C CNN
	1    4200 10400
	-1   0    0    1   
$EndComp
Wire Wire Line
	3550 10800 4750 10800
Wire Wire Line
	3750 10400 3750 10100
Connection ~ 3750 10100
Wire Wire Line
	3750 10100 4750 10100
$Comp
L power1:GNDD #PWR0102
U 1 1 5B82A1A5
P 3550 10100
F 0 "#PWR0102" H 3550 9850 50  0001 C CNN
F 1 "GNDD" H 3550 9950 50  0000 C CNN
F 2 "" H 3550 10100 50  0001 C CNN
F 3 "" H 3550 10100 50  0001 C CNN
	1    3550 10100
	1    0    0    -1  
$EndComp
$Comp
L device1:C C3
U 1 1 5B90E460
P 4750 10250
F 0 "C3" H 4775 10350 50  0000 L CNN
F 1 "100n" H 4775 10150 50  0000 L CNN
F 2 "Capacitors_SMD:C_0402" H 4788 10100 50  0001 C CNN
F 3 "" H 4750 10250 50  0001 C CNN
	1    4750 10250
	1    0    0    -1  
$EndComp
Connection ~ 4750 10100
Wire Wire Line
	4750 10100 5050 10100
Wire Wire Line
	4650 10500 4750 10500
Wire Wire Line
	4750 10500 4750 10800
Wire Wire Line
	4850 10400 4850 10500
Wire Wire Line
	4850 10500 5050 10500
Connection ~ 4750 10800
Wire Wire Line
	3550 10100 3750 10100
$Comp
L ws2812b:ws2812b D2
U 1 1 5BAAFF3D
P 5500 10400
F 0 "D2" H 5500 10250 60  0000 C CNN
F 1 "ws2812b" H 5500 10650 60  0000 C CNN
F 2 "LEDs:LED_WS2812B-PLCC4" H 5500 10700 60  0001 C CNN
F 3 "" H 5500 10700 60  0001 C CNN
	1    5500 10400
	-1   0    0    1   
$EndComp
Wire Wire Line
	5050 10400 5050 10100
$Comp
L device1:C C4
U 1 1 5BAAFF44
P 6050 10250
F 0 "C4" H 6075 10350 50  0000 L CNN
F 1 "100n" H 6075 10150 50  0000 L CNN
F 2 "Capacitors_SMD:C_0402" H 6088 10100 50  0001 C CNN
F 3 "" H 6050 10250 50  0001 C CNN
	1    6050 10250
	1    0    0    -1  
$EndComp
Wire Wire Line
	5950 10500 6050 10500
Wire Wire Line
	6150 10400 6150 10500
Connection ~ 5050 10100
Wire Wire Line
	5050 10100 6050 10100
Connection ~ 6050 10100
$Comp
L ws2812b:ws2812b D3
U 1 1 5BAE18DA
P 6800 10400
F 0 "D3" H 6800 10250 60  0000 C CNN
F 1 "ws2812b" H 6800 10650 60  0000 C CNN
F 2 "LEDs:LED_WS2812B-PLCC4" H 6800 10700 60  0001 C CNN
F 3 "" H 6800 10700 60  0001 C CNN
	1    6800 10400
	-1   0    0    1   
$EndComp
Wire Wire Line
	6350 10400 6350 10100
Wire Wire Line
	7250 10500 7350 10500
Wire Wire Line
	7350 10500 7350 10400
Wire Wire Line
	7350 10500 7350 10800
Connection ~ 7350 10500
Wire Wire Line
	6150 10500 6350 10500
$Comp
L device1:C C6
U 1 1 5BAE18E1
P 7350 10250
F 0 "C6" H 7375 10350 50  0000 L CNN
F 1 "100n" H 7375 10150 50  0000 L CNN
F 2 "Capacitors_SMD:C_0402" H 7388 10100 50  0001 C CNN
F 3 "" H 7350 10250 50  0001 C CNN
	1    7350 10250
	1    0    0    -1  
$EndComp
Connection ~ 6350 10100
Wire Wire Line
	6350 10100 7350 10100
Wire Wire Line
	6050 10100 6350 10100
NoConn ~ 7250 10400
Wire Wire Line
	2950 10600 3500 10600
Wire Wire Line
	3500 10600 3500 10500
Wire Wire Line
	3500 10500 3750 10500
Wire Notes Line
	700  11050 7750 11050
Wire Notes Line
	7750 11050 7750 9850
Wire Notes Line
	7750 9850 700  9850
Wire Wire Line
	6050 10400 6050 10500
Wire Wire Line
	5950 10400 6150 10400
Wire Wire Line
	4750 10800 6050 10800
Wire Wire Line
	6050 10500 6050 10800
Connection ~ 6050 10500
Connection ~ 6050 10800
Wire Wire Line
	6050 10800 7350 10800
Wire Wire Line
	4750 10400 4750 10500
Connection ~ 4750 10500
Wire Wire Line
	4650 10400 4850 10400
$Comp
L conn1:Conn_02x04_Odd_Even J10
U 1 1 5AFFB2FD
P 7400 3000
F 0 "J10" H 7450 3317 50  0000 C CNN
F 1 "Conn_02x04_Odd_Even" H 7450 3226 50  0000 C CNN
F 2 "Pin_Headers:Pin_Header_Straight_2x04_Pitch2.54mm" H 7400 3000 50  0001 C CNN
F 3 "~" H 7400 3000 50  0001 C CNN
	1    7400 3000
	1    0    0    -1  
$EndComp
Wire Wire Line
	7200 2900 7200 3000
Connection ~ 7200 3000
Wire Wire Line
	7200 3000 7200 3100
Connection ~ 7200 3100
Wire Wire Line
	7200 3100 7200 3200
Wire Wire Line
	7700 2900 7700 3000
Connection ~ 7700 3200
Connection ~ 7700 3000
Wire Wire Line
	7700 3000 7700 3100
Connection ~ 7700 3100
Wire Wire Line
	7700 3100 7700 3200
Connection ~ 2450 9550
Wire Wire Line
	2450 9550 1700 9550
NoConn ~ 3300 4750
NoConn ~ 1350 4150
$Comp
L power1:+1V8 #PWR0103
U 1 1 5B1021AD
P 10400 7950
F 0 "#PWR0103" H 10400 7800 50  0001 C CNN
F 1 "+1V8" H 10415 8123 50  0000 C CNN
F 2 "" H 10400 7950 50  0001 C CNN
F 3 "" H 10400 7950 50  0001 C CNN
	1    10400 7950
	1    0    0    -1  
$EndComp
Connection ~ 10400 7950
$Comp
L power1:+3V3 #PWR0104
U 1 1 5B102330
P 10400 8900
F 0 "#PWR0104" H 10400 8750 50  0001 C CNN
F 1 "+3V3" H 10415 9073 50  0000 C CNN
F 2 "" H 10400 8900 50  0001 C CNN
F 3 "" H 10400 8900 50  0001 C CNN
	1    10400 8900
	1    0    0    -1  
$EndComp
Connection ~ 10400 8900
$Comp
L power1:+2V8 #PWR0105
U 1 1 5B16BAB9
P 7900 7950
F 0 "#PWR0105" H 7900 7800 50  0001 C CNN
F 1 "+2V8" H 7915 8123 50  0000 C CNN
F 2 "" H 7900 7950 50  0001 C CNN
F 3 "" H 7900 7950 50  0001 C CNN
	1    7900 7950
	1    0    0    -1  
$EndComp
Connection ~ 7900 7950
$Comp
L power1:+5V #PWR0106
U 1 1 5B18E4DA
P 8550 8900
F 0 "#PWR0106" H 8550 8750 50  0001 C CNN
F 1 "+5V" H 8565 9073 50  0000 C CNN
F 2 "" H 8550 8900 50  0001 C CNN
F 3 "" H 8550 8900 50  0001 C CNN
	1    8550 8900
	1    0    0    -1  
$EndComp
Connection ~ 8550 8900
$Comp
L power1:+5V #PWR0107
U 1 1 5B18E5FB
P 8550 7950
F 0 "#PWR0107" H 8550 7800 50  0001 C CNN
F 1 "+5V" H 8565 8123 50  0000 C CNN
F 2 "" H 8550 7950 50  0001 C CNN
F 3 "" H 8550 7950 50  0001 C CNN
	1    8550 7950
	1    0    0    -1  
$EndComp
Connection ~ 8550 7950
$Comp
L power1:+5V #PWR0108
U 1 1 5B1B02E8
P 6550 7950
F 0 "#PWR0108" H 6550 7800 50  0001 C CNN
F 1 "+5V" H 6565 8123 50  0000 C CNN
F 2 "" H 6550 7950 50  0001 C CNN
F 3 "" H 6550 7950 50  0001 C CNN
	1    6550 7950
	1    0    0    -1  
$EndComp
$Comp
L power1:+5V #PWR0109
U 1 1 5B1D2D7C
P 3550 10800
F 0 "#PWR0109" H 3550 10650 50  0001 C CNN
F 1 "+5V" H 3565 10973 50  0000 C CNN
F 2 "" H 3550 10800 50  0001 C CNN
F 3 "" H 3550 10800 50  0001 C CNN
	1    3550 10800
	1    0    0    -1  
$EndComp
$Comp
L power1:+5V #PWR0110
U 1 1 5B216C14
P 1150 10450
F 0 "#PWR0110" H 1150 10300 50  0001 C CNN
F 1 "+5V" H 1165 10623 50  0000 C CNN
F 2 "" H 1150 10450 50  0001 C CNN
F 3 "" H 1150 10450 50  0001 C CNN
	1    1150 10450
	1    0    0    -1  
$EndComp
$Comp
L power1:+5V #PWR0111
U 1 1 5B2395CA
P 2950 10400
F 0 "#PWR0111" H 2950 10250 50  0001 C CNN
F 1 "+5V" H 2965 10573 50  0000 C CNN
F 2 "" H 2950 10400 50  0001 C CNN
F 3 "" H 2950 10400 50  0001 C CNN
	1    2950 10400
	1    0    0    -1  
$EndComp
$Comp
L power1:+5V #PWR0112
U 1 1 5B23DBA6
P 12150 8450
F 0 "#PWR0112" H 12150 8300 50  0001 C CNN
F 1 "+5V" V 12165 8578 50  0000 L CNN
F 2 "" H 12150 8450 50  0001 C CNN
F 3 "" H 12150 8450 50  0001 C CNN
	1    12150 8450
	0    -1   -1   0   
$EndComp
$Comp
L power1:+3V3 #PWR0113
U 1 1 5B23E347
P 12150 8350
F 0 "#PWR0113" H 12150 8200 50  0001 C CNN
F 1 "+3V3" V 12165 8478 50  0000 L CNN
F 2 "" H 12150 8350 50  0001 C CNN
F 3 "" H 12150 8350 50  0001 C CNN
	1    12150 8350
	0    -1   -1   0   
$EndComp
$Comp
L power1:+5V #PWR0114
U 1 1 5B2E47F8
P 12200 6000
F 0 "#PWR0114" H 12200 5850 50  0001 C CNN
F 1 "+5V" V 12215 6128 50  0000 L CNN
F 2 "" H 12200 6000 50  0001 C CNN
F 3 "" H 12200 6000 50  0001 C CNN
	1    12200 6000
	0    -1   -1   0   
$EndComp
$Comp
L power1:+3V3 #PWR0115
U 1 1 5B2E47FE
P 12200 5900
F 0 "#PWR0115" H 12200 5750 50  0001 C CNN
F 1 "+3V3" V 12215 6028 50  0000 L CNN
F 2 "" H 12200 5900 50  0001 C CNN
F 3 "" H 12200 5900 50  0001 C CNN
	1    12200 5900
	0    -1   -1   0   
$EndComp
$Comp
L power1:+5V #PWR0116
U 1 1 5B36FECD
P 3500 6650
F 0 "#PWR0116" H 3500 6500 50  0001 C CNN
F 1 "+5V" H 3515 6823 50  0000 C CNN
F 2 "" H 3500 6650 50  0001 C CNN
F 3 "" H 3500 6650 50  0001 C CNN
	1    3500 6650
	1    0    0    -1  
$EndComp
$Comp
L power1:+3V3 #PWR0117
U 1 1 5B372301
P 3600 8200
F 0 "#PWR0117" H 3600 8050 50  0001 C CNN
F 1 "+3V3" H 3615 8373 50  0000 C CNN
F 2 "" H 3600 8200 50  0001 C CNN
F 3 "" H 3600 8200 50  0001 C CNN
	1    3600 8200
	1    0    0    -1  
$EndComp
Connection ~ 3600 8200
Wire Wire Line
	3350 8200 3600 8200
$Comp
L power1:+1V8 #PWR0118
U 1 1 5B3DCE07
P 11300 2550
F 0 "#PWR0118" H 11300 2400 50  0001 C CNN
F 1 "+1V8" H 11315 2723 50  0000 C CNN
F 2 "" H 11300 2550 50  0001 C CNN
F 3 "" H 11300 2550 50  0001 C CNN
	1    11300 2550
	1    0    0    -1  
$EndComp
Connection ~ 11300 2550
$Comp
L power1:+1V8 #PWR0119
U 1 1 5B3DCF28
P 11950 2550
F 0 "#PWR0119" H 11950 2400 50  0001 C CNN
F 1 "+1V8" H 11965 2723 50  0000 C CNN
F 2 "" H 11950 2550 50  0001 C CNN
F 3 "" H 11950 2550 50  0001 C CNN
	1    11950 2550
	1    0    0    -1  
$EndComp
Connection ~ 11950 2550
$Comp
L power1:+2V8 #PWR0120
U 1 1 5B3FD906
P 12550 2550
F 0 "#PWR0120" H 12550 2400 50  0001 C CNN
F 1 "+2V8" H 12565 2723 50  0000 C CNN
F 2 "" H 12550 2550 50  0001 C CNN
F 3 "" H 12550 2550 50  0001 C CNN
	1    12550 2550
	1    0    0    -1  
$EndComp
Connection ~ 12550 2550
$Comp
L power1:+1V8 #PWR0121
U 1 1 5B460F74
P 11300 3400
F 0 "#PWR0121" H 11300 3250 50  0001 C CNN
F 1 "+1V8" H 11315 3573 50  0000 C CNN
F 2 "" H 11300 3400 50  0001 C CNN
F 3 "" H 11300 3400 50  0001 C CNN
	1    11300 3400
	1    0    0    -1  
$EndComp
Connection ~ 11300 3400
$Comp
L power1:+1V8 #PWR0122
U 1 1 5B461095
P 11950 3400
F 0 "#PWR0122" H 11950 3250 50  0001 C CNN
F 1 "+1V8" H 11965 3573 50  0000 C CNN
F 2 "" H 11950 3400 50  0001 C CNN
F 3 "" H 11950 3400 50  0001 C CNN
	1    11950 3400
	1    0    0    -1  
$EndComp
Connection ~ 11950 3400
$Comp
L power1:+1V8 #PWR0123
U 1 1 5B4611B6
P 12550 3400
F 0 "#PWR0123" H 12550 3250 50  0001 C CNN
F 1 "+1V8" H 12565 3573 50  0000 C CNN
F 2 "" H 12550 3400 50  0001 C CNN
F 3 "" H 12550 3400 50  0001 C CNN
	1    12550 3400
	1    0    0    -1  
$EndComp
Connection ~ 12550 3400
$Comp
L power1:+2V8 #PWR0124
U 1 1 5B4A1835
P 11300 4400
F 0 "#PWR0124" H 11300 4250 50  0001 C CNN
F 1 "+2V8" H 11315 4573 50  0000 C CNN
F 2 "" H 11300 4400 50  0001 C CNN
F 3 "" H 11300 4400 50  0001 C CNN
	1    11300 4400
	1    0    0    -1  
$EndComp
Connection ~ 11300 4400
$Comp
L power1:+2V8 #PWR0125
U 1 1 5B4A1956
P 11950 4400
F 0 "#PWR0125" H 11950 4250 50  0001 C CNN
F 1 "+2V8" H 11965 4573 50  0000 C CNN
F 2 "" H 11950 4400 50  0001 C CNN
F 3 "" H 11950 4400 50  0001 C CNN
	1    11950 4400
	1    0    0    -1  
$EndComp
Connection ~ 11950 4400
Wire Wire Line
	1350 6450 1350 6550
Connection ~ 1350 6650
Connection ~ 1350 6550
Wire Wire Line
	1350 6550 1350 6650
Wire Wire Line
	3300 6450 3300 6550
Connection ~ 3300 6550
Wire Wire Line
	3300 6550 3300 6650
$Comp
L power1:+5V #PWR0126
U 1 1 5B59DD88
P 7200 3200
F 0 "#PWR0126" H 7200 3050 50  0001 C CNN
F 1 "+5V" V 7215 3328 50  0000 L CNN
F 2 "" H 7200 3200 50  0001 C CNN
F 3 "" H 7200 3200 50  0001 C CNN
	1    7200 3200
	0    -1   -1   0   
$EndComp
Connection ~ 7200 3200
$Comp
L conn1:Conn_01x01 J11
U 1 1 5AFBBF92
P 9150 2250
F 0 "J11" H 9230 2292 50  0000 L CNN
F 1 "Conn_01x01" H 9230 2201 50  0000 L CNN
F 2 "Mounting_Holes:MountingHole_3.2mm_M3_Pad" H 9150 2250 50  0001 C CNN
F 3 "~" H 9150 2250 50  0001 C CNN
	1    9150 2250
	1    0    0    -1  
$EndComp
$Comp
L conn1:Conn_01x01 J12
U 1 1 5AFBC34E
P 9150 2450
F 0 "J12" H 9230 2492 50  0000 L CNN
F 1 "Conn_01x01" H 9230 2401 50  0000 L CNN
F 2 "Mounting_Holes:MountingHole_3.2mm_M3_Pad" H 9150 2450 50  0001 C CNN
F 3 "~" H 9150 2450 50  0001 C CNN
	1    9150 2450
	1    0    0    -1  
$EndComp
$Comp
L conn1:Conn_01x01 J13
U 1 1 5AFBC497
P 9150 2650
F 0 "J13" H 9230 2692 50  0000 L CNN
F 1 "Conn_01x01" H 9230 2601 50  0000 L CNN
F 2 "Mounting_Holes:MountingHole_3.2mm_M3_Pad" H 9150 2650 50  0001 C CNN
F 3 "~" H 9150 2650 50  0001 C CNN
	1    9150 2650
	1    0    0    -1  
$EndComp
$Comp
L conn1:Conn_01x01 J14
U 1 1 5AFBC5EF
P 9150 2850
F 0 "J14" H 9230 2892 50  0000 L CNN
F 1 "Conn_01x01" H 9230 2801 50  0000 L CNN
F 2 "Mounting_Holes:MountingHole_3.2mm_M3_Pad" H 9150 2850 50  0001 C CNN
F 3 "~" H 9150 2850 50  0001 C CNN
	1    9150 2850
	1    0    0    -1  
$EndComp
Wire Wire Line
	8950 2250 8950 2450
Connection ~ 8950 2450
Wire Wire Line
	8950 2450 8950 2650
Connection ~ 8950 2650
Wire Wire Line
	8950 2650 8950 2850
Connection ~ 8950 2850
Wire Wire Line
	8950 2850 8950 3000
$Comp
L power1:GNDD #PWR0127
U 1 1 5AFFCA93
P 8950 3000
F 0 "#PWR0127" H 8950 2750 50  0001 C CNN
F 1 "GNDD" H 8954 2845 50  0000 C CNN
F 2 "" H 8950 3000 50  0001 C CNN
F 3 "" H 8950 3000 50  0001 C CNN
	1    8950 3000
	1    0    0    -1  
$EndComp
Wire Notes Line
	8450 1650 8450 3500
Wire Notes Line
	8450 3500 10100 3500
Wire Notes Line
	10100 3500 10100 1650
Wire Notes Line
	10100 1650 8450 1650
Text Notes 8500 1750 0    50   ~ 0
MOUNTING HOLES
$Comp
L conn1:Conn_02x08_Odd_Even J16
U 1 1 5B04D209
P 9250 4400
F 0 "J16" H 9300 4917 50  0000 C CNN
F 1 "shield north" H 9300 4826 50  0000 C CNN
F 2 "Socket_Strips:Socket_Strip_Straight_2x08_Pitch2.54mm" H 9250 4400 50  0001 C CNN
F 3 "~" H 9250 4400 50  0001 C CNN
	1    9250 4400
	1    0    0    -1  
$EndComp
$Comp
L conn1:Conn_02x08_Odd_Even J15
U 1 1 5B04D463
P 9300 5700
F 0 "J15" H 9350 6217 50  0000 C CNN
F 1 "shield south" H 9350 6126 50  0000 C CNN
F 2 "Socket_Strips:Socket_Strip_Straight_2x08_Pitch2.54mm" H 9300 5700 50  0001 C CNN
F 3 "~" H 9300 5700 50  0001 C CNN
	1    9300 5700
	1    0    0    -1  
$EndComp
Text GLabel 9550 4600 2    60   BiDi ~ 0
PMOD0_N
Text GLabel 9550 4500 2    60   BiDi ~ 0
PMOD1_N
Text GLabel 9550 4400 2    60   BiDi ~ 0
PMOD2_N
Text GLabel 9100 5900 0    60   BiDi ~ 0
PMOD3_N
Text GLabel 9050 4600 0    60   BiDi ~ 0
PMOD4_N
Text GLabel 9050 4500 0    60   BiDi ~ 0
PMOD5_N
Text GLabel 9050 4400 0    60   BiDi ~ 0
PMOD6_N
Text GLabel 9600 5900 2    60   BiDi ~ 0
PMOD7_N
Text GLabel 9600 5500 2    60   BiDi ~ 0
PMOD0_S
Text GLabel 9600 5600 2    60   BiDi ~ 0
PMOD1_S
Text GLabel 9600 5700 2    60   BiDi ~ 0
PMOD2_S
Text GLabel 9600 5800 2    60   BiDi ~ 0
PMOD3_S
Text GLabel 9100 5500 0    60   BiDi ~ 0
PMOD4_S
Text GLabel 9100 5600 0    60   BiDi ~ 0
PMOD5_S
Text GLabel 9100 5700 0    60   BiDi ~ 0
PMOD6_S
Text GLabel 9100 5800 0    60   BiDi ~ 0
PMOD7_S
Text GLabel 9550 4200 2    60   BiDi ~ 0
PMOD0_E
Text GLabel 9050 4200 0    60   BiDi ~ 0
PMOD1_E
Text GLabel 9550 4300 2    60   BiDi ~ 0
PMOD2_E
Text GLabel 9050 4300 0    60   BiDi ~ 0
PMOD3_E
$Comp
L power1:GNDD #PWR0128
U 1 1 5B872283
P 10250 5400
F 0 "#PWR0128" H 10250 5150 50  0001 C CNN
F 1 "GNDD" H 10254 5245 50  0000 C CNN
F 2 "" H 10250 5400 50  0001 C CNN
F 3 "" H 10250 5400 50  0001 C CNN
	1    10250 5400
	1    0    0    -1  
$EndComp
$Comp
L power1:GNDD #PWR0129
U 1 1 5B87234B
P 8450 5400
F 0 "#PWR0129" H 8450 5150 50  0001 C CNN
F 1 "GNDD" H 8454 5245 50  0000 C CNN
F 2 "" H 8450 5400 50  0001 C CNN
F 3 "" H 8450 5400 50  0001 C CNN
	1    8450 5400
	1    0    0    -1  
$EndComp
$Comp
L power1:+3V3 #PWR0130
U 1 1 5B8936F9
P 8650 4100
F 0 "#PWR0130" H 8650 3950 50  0001 C CNN
F 1 "+3V3" H 8665 4273 50  0000 C CNN
F 2 "" H 8650 4100 50  0001 C CNN
F 3 "" H 8650 4100 50  0001 C CNN
	1    8650 4100
	1    0    0    -1  
$EndComp
Wire Wire Line
	9600 5400 10250 5400
Wire Wire Line
	8450 5400 9100 5400
Wire Wire Line
	8650 4100 9050 4100
$Comp
L power1:+3V3 #PWR0131
U 1 1 5BE36DA8
P 9950 4100
F 0 "#PWR0131" H 9950 3950 50  0001 C CNN
F 1 "+3V3" H 9965 4273 50  0000 C CNN
F 2 "" H 9950 4100 50  0001 C CNN
F 3 "" H 9950 4100 50  0001 C CNN
	1    9950 4100
	1    0    0    -1  
$EndComp
Wire Wire Line
	9950 4100 9550 4100
Wire Notes Line
	8050 3800 8050 6250
Wire Notes Line
	8050 6250 10500 6250
Wire Notes Line
	10500 6250 10500 3800
Wire Notes Line
	10500 3800 8050 3800
Text Notes 8100 3900 0    50   ~ 0
SHIELD
NoConn ~ 9600 6000
NoConn ~ 9600 6100
NoConn ~ 9100 6000
NoConn ~ 9100 6100
NoConn ~ 9550 4700
NoConn ~ 9550 4800
NoConn ~ 9050 4700
NoConn ~ 9050 4800
$EndSCHEMATC
